<?xml version="1.0" encoding="UTF-8" standalone="no"?>
<!-- Created with Inkscape (http://www.inkscape.org/) -->

<svg
   xmlns:dc="http://purl.org/dc/elements/1.1/"
   xmlns:cc="http://creativecommons.org/ns#"
   xmlns:rdf="http://www.w3.org/1999/02/22-rdf-syntax-ns#"
   xmlns:svg="http://www.w3.org/2000/svg"
   xmlns="http://www.w3.org/2000/svg"
   xmlns:sodipodi="http://sodipodi.sourceforge.net/DTD/sodipodi-0.dtd"
   xmlns:inkscape="http://www.inkscape.org/namespaces/inkscape"
   width="184.25197"
   height="131.10236"
   id="svg32173"
   sodipodi:version="0.32"
   inkscape:version="0.48.2 r9819"
   sodipodi:docname="ActiveRCtunable.svg"
   inkscape:output_extension="org.inkscape.output.svg.inkscape"
   version="1.1">
  <sodipodi:namedview
     inkscape:document-units="mm"
     id="base"
     pagecolor="#ffffff"
     bordercolor="#666666"
     borderopacity="1.0"
     inkscape:pageopacity="0.0"
     inkscape:pageshadow="2"
     inkscape:zoom="2.8328291"
     inkscape:cx="139.17427"
     inkscape:cy="27.086114"
     inkscape:current-layer="layer1"
     showgrid="true"
     inkscape:object-nodes="false"
     inkscape:object-paths="false"
     inkscape:snap-guide="true"
     objecttolerance="10000"
     gridtolerance="10000"
     guidetolerance="10000"
     inkscape:window-width="1366"
     inkscape:window-height="716"
     inkscape:window-x="-8"
     inkscape:window-y="-8"
     showguides="true"
     inkscape:guide-bbox="true"
     inkscape:snap-nodes="true"
     inkscape:snap-bbox="true"
     inkscape:window-maximized="1"
     units="px"
     fit-margin-top="10"
     fit-margin-left="10"
     fit-margin-right="10"
     fit-margin-bottom="10">
    <inkscape:grid
       type="xygrid"
       id="grid32192"
       visible="true"
       enabled="true"
       dotted="false"
       units="mm"
       spacingx="0.5mm"
       spacingy="0.5mm"
       empspacing="5"
       snapvisiblegridlinesonly="true" />
  </sodipodi:namedview>
  <defs
     id="defs3">
    <marker
       inkscape:stockid="Arrow2Sstart"
       orient="auto"
       refY="0"
       refX="0"
       id="Arrow2Sstart"
       style="overflow:visible">
      <path
         id="path6329"
         style="font-size:12px;fill-rule:evenodd;stroke-width:0.625;stroke-linejoin:round"
         d="M 8.7185878,4.0337352 -2.2072895,0.01601326 8.7185884,-4.0017078 c -1.7454984,2.3720609 -1.7354408,5.6174519 -6e-7,8.035443 z"
         transform="matrix(0.3,0,0,0.3,-0.69,0)"
         inkscape:connector-curvature="0" />
    </marker>
    <marker
       inkscape:stockid="Arrow2Mstart"
       orient="auto"
       refY="0"
       refX="0"
       id="Arrow2Mstart"
       style="overflow:visible">
      <path
         id="path9565"
         style="font-size:12px;fill-rule:evenodd;stroke-width:0.625;stroke-linejoin:round"
         d="M 8.7185878,4.0337352 -2.2072895,0.01601326 8.7185884,-4.0017078 c -1.7454984,2.3720609 -1.7354408,5.6174519 -6e-7,8.035443 z"
         transform="scale(0.6,0.6)"
         inkscape:connector-curvature="0" />
    </marker>
    <marker
       inkscape:stockid="TriangleOutM"
       orient="auto"
       refY="0"
       refX="0"
       id="TriangleOutM"
       style="overflow:visible">
      <path
         id="path9687"
         d="m 5.77,0 -8.65,5 0,-10 8.65,5 z"
         style="fill-rule:evenodd;stroke:#000000;stroke-width:1pt;marker-start:none"
         transform="scale(0.4,0.4)"
         inkscape:connector-curvature="0" />
    </marker>
    <marker
       inkscape:stockid="TriangleOutL"
       orient="auto"
       refY="0"
       refX="0"
       id="TriangleOutL"
       style="overflow:visible">
      <path
         id="path9684"
         d="m 5.77,0 -8.65,5 0,-10 8.65,5 z"
         style="fill-rule:evenodd;stroke:#000000;stroke-width:1pt;marker-start:none"
         transform="scale(0.8,0.8)"
         inkscape:connector-curvature="0" />
    </marker>
    <marker
       inkscape:stockid="Arrow1Lstart"
       orient="auto"
       refY="0"
       refX="0"
       id="Arrow1Lstart"
       style="overflow:visible">
      <path
         id="path9541"
         d="M 0,0 5,-5 -12.5,0 5,5 0,0 z"
         style="fill-rule:evenodd;stroke:#000000;stroke-width:1pt;marker-start:none"
         transform="matrix(0.8,0,0,0.8,10,0)"
         inkscape:connector-curvature="0" />
    </marker>
    <marker
       inkscape:stockid="Arrow1Mend"
       orient="auto"
       refY="0"
       refX="0"
       id="Arrow1Mend"
       style="overflow:visible">
      <path
         id="path9550"
         d="M 0,0 5,-5 -12.5,0 5,5 0,0 z"
         style="fill-rule:evenodd;stroke:#000000;stroke-width:1pt;marker-start:none"
         transform="matrix(-0.4,0,0,-0.4,-4,0)"
         inkscape:connector-curvature="0" />
    </marker>
    <marker
       inkscape:stockid="Arrow2Send"
       orient="auto"
       refY="0"
       refX="0"
       id="Arrow2Send"
       style="overflow:visible">
      <path
         id="path9574"
         style="font-size:12px;fill-rule:evenodd;stroke-width:0.625;stroke-linejoin:round"
         d="M 8.7185878,4.0337352 -2.2072895,0.01601326 8.7185884,-4.0017078 c -1.7454984,2.3720609 -1.7354408,5.6174519 -6e-7,8.035443 z"
         transform="matrix(-0.3,0,0,-0.3,0.69,0)"
         inkscape:connector-curvature="0" />
    </marker>
    <marker
       inkscape:stockid="Arrow2Lend"
       orient="auto"
       refY="0"
       refX="0"
       id="Arrow2Lend"
       style="overflow:visible">
      <path
         id="path9562"
         style="font-size:12px;fill-rule:evenodd;stroke-width:0.625;stroke-linejoin:round"
         d="M 8.7185878,4.0337352 -2.2072895,0.01601326 8.7185884,-4.0017078 c -1.7454984,2.3720609 -1.7354408,5.6174519 -6e-7,8.035443 z"
         transform="matrix(-1.1,0,0,-1.1,-1.1,0)"
         inkscape:connector-curvature="0" />
    </marker>
    <marker
       style="overflow:visible"
       id="marker11348"
       refX="0"
       refY="0"
       orient="auto"
       inkscape:stockid="Arrow2Mend">
      <path
         transform="scale(-0.6,-0.6)"
         d="M 8.7185878,4.0337352 -2.2072895,0.01601326 8.7185884,-4.0017078 c -1.7454984,2.3720609 -1.7354408,5.6174519 -6e-7,8.035443 z"
         style="font-size:12px;fill-rule:evenodd;stroke-width:0.625;stroke-linejoin:round"
         id="path11350"
         inkscape:connector-curvature="0" />
    </marker>
    <inkscape:perspective
       sodipodi:type="inkscape:persp3d"
       inkscape:vp_x="0 : 526.18109 : 1"
       inkscape:vp_y="0 : 1000 : 0"
       inkscape:vp_z="744.09448 : 526.18109 : 1"
       inkscape:persp3d-origin="372.04724 : 350.78739 : 1"
       id="perspective32179" />
    <inkscape:perspective
       id="perspective3648"
       inkscape:persp3d-origin="372.04724 : 350.78739 : 1"
       inkscape:vp_z="744.09448 : 526.18109 : 1"
       inkscape:vp_y="0 : 1000 : 0"
       inkscape:vp_x="0 : 526.18109 : 1"
       sodipodi:type="inkscape:persp3d" />
    <marker
       inkscape:stockid="Arrow2Mend"
       orient="auto"
       refY="0"
       refX="0"
       id="marker3644"
       style="overflow:visible">
      <path
         id="path3646"
         style="font-size:12px;fill-rule:evenodd;stroke-width:0.625;stroke-linejoin:round"
         d="M 8.7185878,4.0337352 -2.2072895,0.01601326 8.7185884,-4.0017078 c -1.7454984,2.3720609 -1.7354408,5.6174519 -6e-7,8.035443 z"
         transform="scale(-0.6,-0.6)"
         inkscape:connector-curvature="0" />
    </marker>
    <marker
       style="overflow:visible"
       id="marker3640"
       refX="0"
       refY="0"
       orient="auto"
       inkscape:stockid="Arrow2Lend">
      <path
         transform="matrix(-1.1,0,0,-1.1,-1.1,0)"
         d="M 8.7185878,4.0337352 -2.2072895,0.01601326 8.7185884,-4.0017078 c -1.7454984,2.3720609 -1.7354408,5.6174519 -6e-7,8.035443 z"
         style="font-size:12px;fill-rule:evenodd;stroke-width:0.625;stroke-linejoin:round"
         id="path3642"
         inkscape:connector-curvature="0" />
    </marker>
    <marker
       style="overflow:visible"
       id="marker3636"
       refX="0"
       refY="0"
       orient="auto"
       inkscape:stockid="Arrow2Send">
      <path
         transform="matrix(-0.3,0,0,-0.3,0.69,0)"
         d="M 8.7185878,4.0337352 -2.2072895,0.01601326 8.7185884,-4.0017078 c -1.7454984,2.3720609 -1.7354408,5.6174519 -6e-7,8.035443 z"
         style="font-size:12px;fill-rule:evenodd;stroke-width:0.625;stroke-linejoin:round"
         id="path3638"
         inkscape:connector-curvature="0" />
    </marker>
    <marker
       style="overflow:visible"
       id="marker3632"
       refX="0"
       refY="0"
       orient="auto"
       inkscape:stockid="Arrow1Mend">
      <path
         transform="matrix(-0.4,0,0,-0.4,-4,0)"
         style="fill-rule:evenodd;stroke:#000000;stroke-width:1pt;marker-start:none"
         d="M 0,0 5,-5 -12.5,0 5,5 0,0 z"
         id="path3634"
         inkscape:connector-curvature="0" />
    </marker>
    <marker
       style="overflow:visible"
       id="marker3628"
       refX="0"
       refY="0"
       orient="auto"
       inkscape:stockid="Arrow1Lstart">
      <path
         transform="matrix(0.8,0,0,0.8,10,0)"
         style="fill-rule:evenodd;stroke:#000000;stroke-width:1pt;marker-start:none"
         d="M 0,0 5,-5 -12.5,0 5,5 0,0 z"
         id="path3630"
         inkscape:connector-curvature="0" />
    </marker>
    <marker
       style="overflow:visible"
       id="marker3624"
       refX="0"
       refY="0"
       orient="auto"
       inkscape:stockid="TriangleOutL">
      <path
         transform="scale(0.8,0.8)"
         style="fill-rule:evenodd;stroke:#000000;stroke-width:1pt;marker-start:none"
         d="m 5.77,0 -8.65,5 0,-10 8.65,5 z"
         id="path3626"
         inkscape:connector-curvature="0" />
    </marker>
    <marker
       style="overflow:visible"
       id="marker3620"
       refX="0"
       refY="0"
       orient="auto"
       inkscape:stockid="TriangleOutM">
      <path
         transform="scale(0.4,0.4)"
         style="fill-rule:evenodd;stroke:#000000;stroke-width:1pt;marker-start:none"
         d="m 5.77,0 -8.65,5 0,-10 8.65,5 z"
         id="path3622"
         inkscape:connector-curvature="0" />
    </marker>
    <marker
       style="overflow:visible"
       id="marker3616"
       refX="0"
       refY="0"
       orient="auto"
       inkscape:stockid="Arrow2Mstart">
      <path
         transform="scale(0.6,0.6)"
         d="M 8.7185878,4.0337352 -2.2072895,0.01601326 8.7185884,-4.0017078 c -1.7454984,2.3720609 -1.7354408,5.6174519 -6e-7,8.035443 z"
         style="font-size:12px;fill-rule:evenodd;stroke-width:0.625;stroke-linejoin:round"
         id="path3618"
         inkscape:connector-curvature="0" />
    </marker>
  </defs>
  <metadata
     id="metadata4">
    <rdf:RDF>
      <cc:Work
         rdf:about="">
        <dc:format>image/svg+xml</dc:format>
        <dc:type
           rdf:resource="http://purl.org/dc/dcmitype/StillImage" />
        <dc:title />
      </cc:Work>
    </rdf:RDF>
  </metadata>
  <g
     inkscape:label="Layer 1"
     inkscape:groupmode="layer"
     id="layer1"
     transform="translate(-141.86221,-581.00947)">
    <text
       xml:space="preserve"
       style="font-size:8px;font-style:normal;font-weight:normal;fill:#000000;fill-opacity:1;stroke:none;font-family:Bitstream Vera Sans"
       x="67.959961"
       y="56.541172"
       id="text40300"><tspan
         sodipodi:role="line"
         id="tspan40302"
         x="67.959961"
         y="56.541172" /></text>
    <text
       xml:space="preserve"
       style="font-size:8px;font-style:normal;font-weight:normal;fill:#000000;fill-opacity:1;stroke:none;font-family:Bitstream Vera Sans"
       x="12.401575"
       y="62.033875"
       id="text40304"><tspan
         sodipodi:role="line"
         id="tspan40306"
         x="12.401575"
         y="62.033875" /></text>
    <path
       sodipodi:type="arc"
       style="fill:none;stroke:#000000;stroke-width:1;stroke-linecap:round;stroke-linejoin:round;stroke-miterlimit:4;stroke-opacity:1;stroke-dasharray:none"
       id="path49969"
       sodipodi:cx="204.62599"
       sodipodi:cy="299.40942"
       sodipodi:rx="0.88582677"
       sodipodi:ry="0"
       sodipodi:start="4.712389"
       sodipodi:end="7.8313482"
       transform="translate(0.0903386,-2.9844355e-6)" />
    <path
       sodipodi:type="arc"
       style="fill:none;stroke:#000000;stroke-width:1;stroke-linecap:round;stroke-linejoin:round;stroke-miterlimit:4;stroke-opacity:1;stroke-dasharray:none"
       id="path49973"
       sodipodi:cx="212.59842"
       sodipodi:cy="288.77951"
       sodipodi:rx="0"
       sodipodi:ry="1.7716535"
       sodipodi:start="4.712389"
       sodipodi:end="7.8313482"
       transform="translate(0.0903386,-2.9844355e-6)" />
    <path
       sodipodi:type="arc"
       style="fill:none;stroke:#000000;stroke-width:1;stroke-linecap:round;stroke-linejoin:round;stroke-miterlimit:4;stroke-opacity:1;stroke-dasharray:none"
       id="path49975"
       sodipodi:cx="214.37007"
       sodipodi:cy="290.55115"
       sodipodi:rx="0"
       sodipodi:ry="0"
       sodipodi:start="4.712389"
       sodipodi:end="7.8313482"
       transform="translate(0.0903386,-2.9844355e-6)" />
    <path
       sodipodi:type="arc"
       style="fill:none;stroke:#000000;stroke-width:1;stroke-linecap:round;stroke-linejoin:round;stroke-miterlimit:4;stroke-opacity:1;stroke-dasharray:none"
       id="path49977"
       sodipodi:cx="214.37007"
       sodipodi:cy="287.00784"
       sodipodi:rx="0"
       sodipodi:ry="0"
       sodipodi:start="4.712389"
       sodipodi:end="7.8313482"
       transform="translate(0.0903386,-2.9844355e-6)" />
    <path
       style="fill:none;stroke:#000000;stroke-width:1;stroke-linecap:round;stroke-linejoin:miter;stroke-miterlimit:4;stroke-opacity:1;stroke-dasharray:none"
       id="path2623"
       sodipodi:nodetypes="cc"
       d=""
       inkscape:connector-curvature="0" />
    <text
       xml:space="preserve"
       style="font-size:8px;font-style:normal;font-weight:normal;fill:#000000;fill-opacity:1;stroke:none;font-family:Bitstream Vera Sans"
       x="67.959969"
       y="56.541176"
       id="text3652"><tspan
         sodipodi:role="line"
         id="tspan3654"
         x="67.959969"
         y="56.541176" /></text>
    <text
       xml:space="preserve"
       style="font-size:8px;font-style:normal;font-weight:normal;fill:#000000;fill-opacity:1;stroke:none;font-family:Bitstream Vera Sans"
       x="12.401583"
       y="62.033878"
       id="text3656"><tspan
         sodipodi:role="line"
         id="tspan3658"
         x="12.401583"
         y="62.033878" /></text>
    <path
       sodipodi:type="arc"
       style="fill:none;stroke:#000000;stroke-width:1;stroke-linecap:round;stroke-linejoin:round;stroke-miterlimit:4;stroke-opacity:1;stroke-dasharray:none"
       id="path3660"
       sodipodi:cx="204.62599"
       sodipodi:cy="299.40942"
       sodipodi:rx="0.88582677"
       sodipodi:ry="0"
       sodipodi:start="4.712389"
       sodipodi:end="7.8313482"
       transform="translate(0.0903459,-1.0088479e-7)" />
    <path
       sodipodi:type="arc"
       style="fill:none;stroke:#000000;stroke-width:1;stroke-linecap:round;stroke-linejoin:round;stroke-miterlimit:4;stroke-opacity:1;stroke-dasharray:none"
       id="path3662"
       sodipodi:cx="212.59842"
       sodipodi:cy="288.77951"
       sodipodi:rx="0"
       sodipodi:ry="1.7716535"
       sodipodi:start="4.712389"
       sodipodi:end="7.8313482"
       transform="translate(0.0903459,-1.0088479e-7)" />
    <path
       sodipodi:type="arc"
       style="fill:none;stroke:#000000;stroke-width:1;stroke-linecap:round;stroke-linejoin:round;stroke-miterlimit:4;stroke-opacity:1;stroke-dasharray:none"
       id="path3664"
       sodipodi:cx="214.37007"
       sodipodi:cy="290.55115"
       sodipodi:rx="0"
       sodipodi:ry="0"
       sodipodi:start="4.712389"
       sodipodi:end="7.8313482"
       transform="translate(0.0903459,-1.0088479e-7)" />
    <path
       sodipodi:type="arc"
       style="fill:none;stroke:#000000;stroke-width:1;stroke-linecap:round;stroke-linejoin:round;stroke-miterlimit:4;stroke-opacity:1;stroke-dasharray:none"
       id="path3666"
       sodipodi:cx="214.37007"
       sodipodi:cy="287.00784"
       sodipodi:rx="0"
       sodipodi:ry="0"
       sodipodi:start="4.712389"
       sodipodi:end="7.8313482"
       transform="translate(0.0903459,-1.0088479e-7)" />
    <rect
       style="opacity:0.5;fill:#ffffff;fill-opacity:1;fill-rule:nonzero;stroke:#000000;stroke-width:1;stroke-linecap:round;stroke-linejoin:round;stroke-miterlimit:4;stroke-opacity:1;stroke-dasharray:none;stroke-dashoffset:0"
       id="rect6425"
       width="0"
       height="0"
       x="113.47617"
       y="193.11021" />
    <g
       id="g4548"
       transform="matrix(1,0,0,-1,-3.1392591,1348.2028)">
      <path
         id="path50397-7"
         d="m 277.87547,671.52402 3.54331,0"
         style="fill:none;stroke:#000000;stroke-width:1;stroke-linecap:round;stroke-linejoin:round;stroke-miterlimit:4;stroke-opacity:1;stroke-dasharray:none"
         inkscape:connector-curvature="0" />
      <path
         id="path50399-4"
         d="m 279.64713,673.29568 0,-3.54331"
         style="fill:none;stroke:#000000;stroke-width:1;stroke-linecap:round;stroke-linejoin:round;stroke-miterlimit:4;stroke-opacity:1;stroke-dasharray:none"
         inkscape:connector-curvature="0" />
      <path
         id="path50401-0"
         d="m 277.87548,689.24056 3.54331,0"
         style="fill:none;stroke:#000000;stroke-width:1;stroke-linecap:round;stroke-linejoin:round;stroke-miterlimit:4;stroke-opacity:1;stroke-dasharray:none"
         inkscape:connector-curvature="0" />
      <path
         id="path50403-9"
         d="m 274.28573,701.61187 0,-42.41279 39.19004,21.20639 -39.19004,21.2064"
         style="fill:none;stroke:#000000;stroke-width:1;stroke-linecap:butt;stroke-linejoin:round;stroke-miterlimit:4;stroke-opacity:1;stroke-dasharray:none"
         inkscape:connector-curvature="0" />
      <path
         id="path50405-4"
         d="m 274.33216,689.24056 -8.85825,0"
         style="fill:none;stroke:#000000;stroke-width:1;stroke-linecap:butt;stroke-linejoin:miter;stroke-miterlimit:4;stroke-opacity:1;stroke-dasharray:none"
         inkscape:connector-curvature="0" />
      <path
         id="path50407-8"
         d="m 274.33217,671.52403 -8.85826,0"
         style="fill:none;stroke:#000000;stroke-width:1;stroke-linecap:butt;stroke-linejoin:miter;stroke-miterlimit:4;stroke-opacity:1;stroke-dasharray:none"
         inkscape:connector-curvature="0" />
      <path
         id="path50415-8"
         d="m 313.58267,680.31494 8.85827,0"
         style="fill:none;stroke:#000000;stroke-width:1;stroke-linecap:square;stroke-linejoin:miter;stroke-miterlimit:4;stroke-opacity:1;stroke-dasharray:none"
         inkscape:connector-curvature="0" />
    </g>
    <path
       inkscape:connector-curvature="0"
       style="fill:none;stroke:#000000;stroke-width:1;stroke-linecap:butt;stroke-linejoin:round;stroke-miterlimit:4;stroke-opacity:1;stroke-dasharray:none"
       d="m 221.86074,658.8485 3.5433,0 1.77165,-3.54331 3.54331,7.08662 3.54331,-7.08662 3.54331,7.08662 3.5433,-7.08662 3.54331,7.08662 1.77165,-3.54331 3.54332,0"
       id="path45546-2"
       sodipodi:nodetypes="cccccccccc" />
    <g
       transform="translate(25.116861,612.78553)"
       id="g19526-4">
      <path
         inkscape:connector-curvature="0"
         id="path50965-5"
         d="m 196.74388,33.661391 8.85827,0"
         style="fill:none;stroke:#000000;stroke-width:1;stroke-linecap:butt;stroke-linejoin:round;stroke-miterlimit:4;stroke-opacity:1;stroke-dasharray:none" />
      <path
         inkscape:connector-curvature="0"
         id="path50969-5"
         d="m 228.63365,33.661391 -8.85827,0 -12.28557,-6.933186"
         style="fill:none;stroke:#000000;stroke-width:1;stroke-linecap:round;stroke-linejoin:round;stroke-miterlimit:4;stroke-opacity:1;stroke-dasharray:none"
         sodipodi:nodetypes="ccc" />
      <path
         transform="matrix(1.0060001,-0.0202728,0.02141989,0.9521258,-13.301385,-264.85178)"
         d="m 212.59843,318.01178 c 0,0.48923 -0.3966,0.88583 -0.88583,0.88583 -0.48923,0 -0.88583,-0.3966 -0.88583,-0.88583 0,-0.48923 0.3966,-0.88583 0.88583,-0.88583 0.48923,0 0.88583,0.3966 0.88583,0.88583 z"
         sodipodi:ry="0.88582677"
         sodipodi:rx="0.88582677"
         sodipodi:cy="318.01178"
         sodipodi:cx="211.7126"
         id="path51008-1"
         style="fill:none;stroke:#000000;stroke-width:1.02154005;stroke-linecap:round;stroke-linejoin:round;stroke-miterlimit:4;stroke-opacity:1;stroke-dasharray:none"
         sodipodi:type="arc" />
    </g>
    <g
       transform="matrix(-1,0,0,1,491.24241,598.61231)"
       id="g19526-7">
      <path
         inkscape:connector-curvature="0"
         id="path50965-1"
         d="m 196.74388,33.661391 8.85827,0"
         style="fill:none;stroke:#000000;stroke-width:1;stroke-linecap:butt;stroke-linejoin:round;stroke-miterlimit:4;stroke-opacity:1;stroke-dasharray:none" />
      <path
         inkscape:connector-curvature="0"
         id="path50969-1"
         d="m 228.63365,33.661391 -8.85827,0 -12.28557,-6.933186"
         style="fill:none;stroke:#000000;stroke-width:1;stroke-linecap:round;stroke-linejoin:round;stroke-miterlimit:4;stroke-opacity:1;stroke-dasharray:none"
         sodipodi:nodetypes="ccc" />
      <path
         transform="matrix(1.0060001,-0.0202728,0.02141989,0.9521258,-13.301385,-264.85178)"
         d="m 212.59843,318.01178 c 0,0.48923 -0.3966,0.88583 -0.88583,0.88583 -0.48923,0 -0.88583,-0.3966 -0.88583,-0.88583 0,-0.48923 0.3966,-0.88583 0.88583,-0.88583 0.48923,0 0.88583,0.3966 0.88583,0.88583 z"
         sodipodi:ry="0.88582677"
         sodipodi:rx="0.88582677"
         sodipodi:cy="318.01178"
         sodipodi:cx="211.7126"
         id="path51008-5"
         style="fill:none;stroke:#000000;stroke-width:1.02154005;stroke-linecap:round;stroke-linejoin:round;stroke-miterlimit:4;stroke-opacity:1;stroke-dasharray:none"
         sodipodi:type="arc" />
    </g>
    <g
       id="g3554"
       transform="matrix(0,1,1,0,-341.52483,304.42747)">
      <path
         id="path50040-2"
         d="m 327.84623,635.99459 0,7.35826"
         style="fill:none;stroke:#000000;stroke-width:1;stroke-linecap:butt;stroke-linejoin:miter;stroke-miterlimit:4;stroke-opacity:1;stroke-dasharray:none"
         inkscape:connector-curvature="0" />
      <path
         id="path50042-7"
         d="m 327.84623,646.65329 0,7.08661"
         style="fill:none;stroke:#000000;stroke-width:1;stroke-linecap:butt;stroke-linejoin:miter;stroke-miterlimit:4;stroke-opacity:1;stroke-dasharray:none"
         inkscape:connector-curvature="0" />
      <path
         id="path50044-6"
         d="m 333.1612,643.10996 -10.62994,0"
         style="fill:none;stroke:#000000;stroke-width:1;stroke-linecap:round;stroke-linejoin:miter;stroke-miterlimit:4;stroke-opacity:1;stroke-dasharray:none"
         inkscape:connector-curvature="0" />
      <path
         sodipodi:nodetypes="cc"
         id="path3831-1"
         d="m 333.1612,648.42514 c -3.34318,-2.13231 -6.84738,-2.52612 -10.62993,0"
         style="fill:none;stroke:#000000;stroke-width:1;stroke-linecap:round;stroke-linejoin:miter;stroke-miterlimit:4;stroke-opacity:1;stroke-dasharray:none"
         inkscape:connector-curvature="0" />
    </g>
    <path
       inkscape:connector-curvature="0"
       style="fill:none;stroke:#000000;stroke-width:1;stroke-linecap:butt;stroke-linejoin:miter;stroke-miterlimit:4;stroke-opacity:1;stroke-dasharray:none"
       d="m 262.60877,658.8485 -12.40157,0"
       id="path50407-8-4" />
    <path
       inkscape:connector-curvature="0"
       style="fill:none;stroke:#000000;stroke-width:1;stroke-linecap:butt;stroke-linejoin:miter;stroke-miterlimit:4;stroke-opacity:1;stroke-dasharray:none"
       d="m 253.7505,658.8485 0,-12.40157"
       id="path50407-8-4-2" />
    <path
       inkscape:connector-curvature="0"
       style="fill:none;stroke:#000000;stroke-width:1;stroke-linecap:butt;stroke-linejoin:miter;stroke-miterlimit:4;stroke-opacity:1;stroke-dasharray:none"
       d="m 220.08909,658.8485 0,-12.40157"
       id="path50407-8-4-2-3" />
    <path
       inkscape:connector-curvature="0"
       style="fill:none;stroke:#000000;stroke-width:1;stroke-linecap:butt;stroke-linejoin:miter;stroke-miterlimit:4;stroke-opacity:1;stroke-dasharray:none"
       d="m 213.41772,658.8485 10.29942,0"
       id="path50407-8-4-2-3-2" />
    <path
       inkscape:connector-curvature="0"
       style="fill:none;stroke:#000000;stroke-width:1;stroke-linecap:butt;stroke-linejoin:miter;stroke-miterlimit:4;stroke-opacity:1;stroke-dasharray:none"
       d="m 220.08909,646.44693 7.08661,0"
       id="path50407-8-4-2-3-21" />
    <path
       inkscape:connector-curvature="0"
       style="fill:none;stroke:#000000;stroke-width:1;stroke-linecap:butt;stroke-linejoin:round;stroke-miterlimit:4;stroke-opacity:1;stroke-dasharray:none"
       d="m 188.19932,658.8485 3.5433,0 1.77165,-3.54331 3.54331,7.08662 3.54331,-7.08662 3.54331,7.08662 3.5433,-7.08662 3.54331,7.08662 1.77165,-3.54331 3.54332,0"
       id="path45546-2-6"
       sodipodi:nodetypes="cccccccccc" />
    <g
       transform="translate(-8.5445687,612.78553)"
       id="g19526-4-8">
      <path
         inkscape:connector-curvature="0"
         id="path50965-5-5"
         d="m 196.74388,33.661391 8.85827,0"
         style="fill:none;stroke:#000000;stroke-width:1;stroke-linecap:butt;stroke-linejoin:round;stroke-miterlimit:4;stroke-opacity:1;stroke-dasharray:none" />
      <path
         inkscape:connector-curvature="0"
         id="path50969-5-7"
         d="m 228.63365,33.661391 -8.85827,0 -12.28557,-6.933186"
         style="fill:none;stroke:#000000;stroke-width:1;stroke-linecap:round;stroke-linejoin:round;stroke-miterlimit:4;stroke-opacity:1;stroke-dasharray:none"
         sodipodi:nodetypes="ccc" />
      <path
         transform="matrix(1.0060001,-0.0202728,0.02141989,0.9521258,-13.301385,-264.85178)"
         d="m 212.59843,318.01178 c 0,0.48923 -0.3966,0.88583 -0.88583,0.88583 -0.48923,0 -0.88583,-0.3966 -0.88583,-0.88583 0,-0.48923 0.3966,-0.88583 0.88583,-0.88583 0.48923,0 0.88583,0.3966 0.88583,0.88583 z"
         sodipodi:ry="0.88582677"
         sodipodi:rx="0.88582677"
         sodipodi:cy="318.01178"
         sodipodi:cx="211.7126"
         id="path51008-1-6"
         style="fill:none;stroke:#000000;stroke-width:1.02154005;stroke-linecap:round;stroke-linejoin:round;stroke-miterlimit:4;stroke-opacity:1;stroke-dasharray:none"
         sodipodi:type="arc" />
    </g>
    <path
       inkscape:connector-curvature="0"
       style="fill:none;stroke:#000000;stroke-width:1;stroke-linecap:butt;stroke-linejoin:miter;stroke-miterlimit:4;stroke-opacity:1;stroke-dasharray:none"
       d="m 220.08908,658.8485 0,-12.40157"
       id="path50407-8-4-2-1" />
    <path
       inkscape:connector-curvature="0"
       style="fill:none;stroke:#000000;stroke-width:1;stroke-linecap:butt;stroke-linejoin:miter;stroke-miterlimit:4;stroke-opacity:1;stroke-dasharray:none"
       d="m 186.42767,658.8485 0,-12.40157"
       id="path50407-8-4-2-3-8" />
    <path
       inkscape:connector-curvature="0"
       style="fill:none;stroke:#000000;stroke-width:1;stroke-linecap:butt;stroke-linejoin:miter;stroke-miterlimit:4;stroke-opacity:1;stroke-dasharray:none"
       d="m 186.42767,646.44693 7.08661,0"
       id="path50407-8-4-2-3-21-9" />
    <path
       inkscape:connector-curvature="0"
       style="fill:none;stroke:#000000;stroke-width:1;stroke-linecap:butt;stroke-linejoin:round;stroke-miterlimit:4;stroke-opacity:1;stroke-dasharray:none"
       d="m 154.5379,658.8485 3.5433,0 1.77165,-3.54331 3.54331,7.08662 3.54331,-7.08662 3.54331,7.08662 3.5433,-7.08662 3.54331,7.08662 1.77165,-3.54331 3.54332,0"
       id="path45546-2-2"
       sodipodi:nodetypes="cccccccccc" />
    <g
       transform="translate(-42.205978,612.78553)"
       id="g19526-4-7">
      <path
         inkscape:connector-curvature="0"
         id="path50965-5-9"
         d="m 196.74388,33.661391 8.85827,0"
         style="fill:none;stroke:#000000;stroke-width:1;stroke-linecap:butt;stroke-linejoin:round;stroke-miterlimit:4;stroke-opacity:1;stroke-dasharray:none" />
      <path
         inkscape:connector-curvature="0"
         id="path50969-5-5"
         d="m 228.63365,33.661391 -8.85827,0 -12.28557,-6.933186"
         style="fill:none;stroke:#000000;stroke-width:1;stroke-linecap:round;stroke-linejoin:round;stroke-miterlimit:4;stroke-opacity:1;stroke-dasharray:none"
         sodipodi:nodetypes="ccc" />
      <path
         transform="matrix(1.0060001,-0.0202728,0.02141989,0.9521258,-13.301385,-264.85178)"
         d="m 212.59843,318.01178 c 0,0.48923 -0.3966,0.88583 -0.88583,0.88583 -0.48923,0 -0.88583,-0.3966 -0.88583,-0.88583 0,-0.48923 0.3966,-0.88583 0.88583,-0.88583 0.48923,0 0.88583,0.3966 0.88583,0.88583 z"
         sodipodi:ry="0.88582677"
         sodipodi:rx="0.88582677"
         sodipodi:cy="318.01178"
         sodipodi:cx="211.7126"
         id="path51008-1-4"
         style="fill:none;stroke:#000000;stroke-width:1.02154005;stroke-linecap:round;stroke-linejoin:round;stroke-miterlimit:4;stroke-opacity:1;stroke-dasharray:none"
         sodipodi:type="arc" />
    </g>
    <path
       inkscape:connector-curvature="0"
       style="fill:none;stroke:#000000;stroke-width:1;stroke-linecap:butt;stroke-linejoin:miter;stroke-miterlimit:4;stroke-opacity:1;stroke-dasharray:none"
       d="m 186.42766,658.8485 0,-12.40157"
       id="path50407-8-4-2-31" />
    <path
       inkscape:connector-curvature="0"
       style="fill:none;stroke:#000000;stroke-width:1;stroke-linecap:butt;stroke-linejoin:miter;stroke-miterlimit:4;stroke-opacity:1;stroke-dasharray:none"
       d="m 152.76625,658.8485 0,-12.40157"
       id="path50407-8-4-2-3-23" />
    <path
       inkscape:connector-curvature="0"
       style="fill:none;stroke:#000000;stroke-width:1;stroke-linecap:butt;stroke-linejoin:miter;stroke-miterlimit:4;stroke-opacity:1;stroke-dasharray:none"
       d="m 152.76625,646.44693 7.08661,0"
       id="path50407-8-4-2-3-21-3" />
    <path
       inkscape:connector-curvature="0"
       style="fill:none;stroke:#000000;stroke-width:1;stroke-linecap:butt;stroke-linejoin:miter;stroke-miterlimit:4;stroke-opacity:1;stroke-dasharray:none"
       d="m 182.88437,658.8485 7.08661,0"
       id="path50407-8-4-2-3-21-9-4" />
    <path
       inkscape:connector-curvature="0"
       style="fill:none;stroke:#000000;stroke-width:1;stroke-linecap:butt;stroke-linejoin:miter;stroke-miterlimit:4;stroke-opacity:1;stroke-dasharray:none"
       d="m 149.22295,658.8485 7.08661,0"
       id="path50407-8-4-2-3-21-9-1" />
    <g
       transform="matrix(-1,0,0,1,491.24242,582.66742)"
       id="g19526-7-8">
      <path
         inkscape:connector-curvature="0"
         id="path50965-1-7"
         d="m 196.74388,33.661391 8.85827,0"
         style="fill:none;stroke:#000000;stroke-width:1;stroke-linecap:butt;stroke-linejoin:round;stroke-miterlimit:4;stroke-opacity:1;stroke-dasharray:none" />
      <path
         inkscape:connector-curvature="0"
         id="path50969-1-4"
         d="m 228.63365,33.661391 -8.85827,0 -12.28557,-6.933186"
         style="fill:none;stroke:#000000;stroke-width:1;stroke-linecap:round;stroke-linejoin:round;stroke-miterlimit:4;stroke-opacity:1;stroke-dasharray:none"
         sodipodi:nodetypes="ccc" />
      <path
         transform="matrix(1.0060001,-0.0202728,0.02141989,0.9521258,-13.301385,-264.85178)"
         d="m 212.59843,318.01178 c 0,0.48923 -0.3966,0.88583 -0.88583,0.88583 -0.48923,0 -0.88583,-0.3966 -0.88583,-0.88583 0,-0.48923 0.3966,-0.88583 0.88583,-0.88583 0.48923,0 0.88583,0.3966 0.88583,0.88583 z"
         sodipodi:ry="0.88582677"
         sodipodi:rx="0.88582677"
         sodipodi:cy="318.01178"
         sodipodi:cx="211.7126"
         id="path51008-5-2"
         style="fill:none;stroke:#000000;stroke-width:1.02154005;stroke-linecap:round;stroke-linejoin:round;stroke-miterlimit:4;stroke-opacity:1;stroke-dasharray:none"
         sodipodi:type="arc" />
    </g>
    <g
       id="g3554-7"
       transform="matrix(0,1,1,0,-341.52482,288.48259)">
      <path
         id="path50040-2-7"
         d="m 327.84623,635.99459 0,7.35826"
         style="fill:none;stroke:#000000;stroke-width:1;stroke-linecap:butt;stroke-linejoin:miter;stroke-miterlimit:4;stroke-opacity:1;stroke-dasharray:none"
         inkscape:connector-curvature="0" />
      <path
         id="path50042-7-9"
         d="m 327.84623,646.65329 0,7.08661"
         style="fill:none;stroke:#000000;stroke-width:1;stroke-linecap:butt;stroke-linejoin:miter;stroke-miterlimit:4;stroke-opacity:1;stroke-dasharray:none"
         inkscape:connector-curvature="0" />
      <path
         id="path50044-6-3"
         d="m 333.1612,643.10996 -10.62994,0"
         style="fill:none;stroke:#000000;stroke-width:1;stroke-linecap:round;stroke-linejoin:miter;stroke-miterlimit:4;stroke-opacity:1;stroke-dasharray:none"
         inkscape:connector-curvature="0" />
      <path
         sodipodi:nodetypes="cc"
         id="path3831-1-1"
         d="m 333.1612,648.42514 c -3.34318,-2.13231 -6.84738,-2.52612 -10.62993,0"
         style="fill:none;stroke:#000000;stroke-width:1;stroke-linecap:round;stroke-linejoin:miter;stroke-miterlimit:4;stroke-opacity:1;stroke-dasharray:none"
         inkscape:connector-curvature="0" />
    </g>
    <g
       transform="matrix(-1,0,0,1,491.24241,568.4942)"
       id="g19526-7-9">
      <path
         inkscape:connector-curvature="0"
         id="path50965-1-8"
         d="m 196.74388,33.661391 8.85827,0"
         style="fill:none;stroke:#000000;stroke-width:1;stroke-linecap:butt;stroke-linejoin:round;stroke-miterlimit:4;stroke-opacity:1;stroke-dasharray:none" />
      <path
         inkscape:connector-curvature="0"
         id="path50969-1-6"
         d="m 228.63365,33.661391 -8.85827,0 -12.28557,-6.933186"
         style="fill:none;stroke:#000000;stroke-width:1;stroke-linecap:round;stroke-linejoin:round;stroke-miterlimit:4;stroke-opacity:1;stroke-dasharray:none"
         sodipodi:nodetypes="ccc" />
      <path
         transform="matrix(1.0060001,-0.0202728,0.02141989,0.9521258,-13.301385,-264.85178)"
         d="m 212.59843,318.01178 c 0,0.48923 -0.3966,0.88583 -0.88583,0.88583 -0.48923,0 -0.88583,-0.3966 -0.88583,-0.88583 0,-0.48923 0.3966,-0.88583 0.88583,-0.88583 0.48923,0 0.88583,0.3966 0.88583,0.88583 z"
         sodipodi:ry="0.88582677"
         sodipodi:rx="0.88582677"
         sodipodi:cy="318.01178"
         sodipodi:cx="211.7126"
         id="path51008-5-5"
         style="fill:none;stroke:#000000;stroke-width:1.02154005;stroke-linecap:round;stroke-linejoin:round;stroke-miterlimit:4;stroke-opacity:1;stroke-dasharray:none"
         sodipodi:type="arc" />
    </g>
    <g
       id="g3554-0"
       transform="matrix(0,1,1,0,-341.52482,274.30937)">
      <path
         id="path50040-2-2"
         d="m 327.84623,635.99459 0,7.35826"
         style="fill:none;stroke:#000000;stroke-width:1;stroke-linecap:butt;stroke-linejoin:miter;stroke-miterlimit:4;stroke-opacity:1;stroke-dasharray:none"
         inkscape:connector-curvature="0" />
      <path
         id="path50042-7-8"
         d="m 327.84623,646.65329 0,7.08661"
         style="fill:none;stroke:#000000;stroke-width:1;stroke-linecap:butt;stroke-linejoin:miter;stroke-miterlimit:4;stroke-opacity:1;stroke-dasharray:none"
         inkscape:connector-curvature="0" />
      <path
         id="path50044-6-6"
         d="m 333.1612,643.10996 -10.62994,0"
         style="fill:none;stroke:#000000;stroke-width:1;stroke-linecap:round;stroke-linejoin:miter;stroke-miterlimit:4;stroke-opacity:1;stroke-dasharray:none"
         inkscape:connector-curvature="0" />
      <path
         sodipodi:nodetypes="cc"
         id="path3831-1-0"
         d="m 333.1612,648.42514 c -3.34318,-2.13231 -6.84738,-2.52612 -10.62993,0"
         style="fill:none;stroke:#000000;stroke-width:1;stroke-linecap:round;stroke-linejoin:miter;stroke-miterlimit:4;stroke-opacity:1;stroke-dasharray:none"
         inkscape:connector-curvature="0" />
    </g>
    <path
       inkscape:connector-curvature="0"
       style="fill:none;stroke:#000000;stroke-width:1;stroke-linecap:butt;stroke-linejoin:miter;stroke-miterlimit:4;stroke-opacity:1;stroke-dasharray:none"
       d="m 262.60877,658.8485 0,-56.69291"
       id="path50407-8-4-2-2" />
    <path
       inkscape:connector-curvature="0"
       style="fill:none;stroke:#000000;stroke-width:1;stroke-linecap:butt;stroke-linejoin:miter;stroke-miterlimit:4;stroke-opacity:1;stroke-dasharray:none"
       d="m 312.21507,667.70677 0,-65.55118"
       id="path50407-8-4-2-2-4" />
    <g
       id="g3602-8"
       transform="translate(165.16783,572.4125)">
      <path
         inkscape:connector-curvature="0"
         id="path46259-6"
         d="m 92.12598,109.8425 10.62992,0"
         style="fill:none;stroke:#000000;stroke-width:1;stroke-linecap:round;stroke-linejoin:miter;stroke-miterlimit:4;stroke-opacity:1;stroke-dasharray:none" />
      <path
         inkscape:connector-curvature="0"
         id="path46261-5"
         d="m 93.89763,111.61437 7.08661,0"
         style="fill:none;stroke:#000000;stroke-width:1;stroke-linecap:round;stroke-linejoin:miter;stroke-miterlimit:4;stroke-opacity:1;stroke-dasharray:none" />
      <path
         inkscape:connector-curvature="0"
         id="path46263-0"
         d="m 95.66928,113.38581 3.54331,0"
         style="fill:none;stroke:#000000;stroke-width:1;stroke-linecap:round;stroke-linejoin:miter;stroke-miterlimit:4;stroke-opacity:1;stroke-dasharray:none" />
      <path
         inkscape:connector-curvature="0"
         id="path46265-9"
         d="m 97.44094,109.4675 0,-5.31496"
         style="fill:none;stroke:#000000;stroke-width:1;stroke-linecap:butt;stroke-linejoin:miter;stroke-miterlimit:4;stroke-opacity:1;stroke-dasharray:none" />
    </g>
    <rect
       style="opacity:0;fill:#000000;fill-opacity:1;stroke:#ff82ff;stroke-width:0.99921262;stroke-miterlimit:4;stroke-opacity:1;stroke-dasharray:none;stroke-dashoffset:0"
       id="rect3107"
       width="184.25197"
       height="131.10236"
       x="0"
       y="-6.2476934e-006"
       transform="translate(141.86221,581.00947)" />
  </g>
</svg>
