<?xml version="1.0" encoding="UTF-8" standalone="no"?>
<!-- Created with Inkscape (http://www.inkscape.org/) -->

<svg
   xmlns:dc="http://purl.org/dc/elements/1.1/"
   xmlns:cc="http://creativecommons.org/ns#"
   xmlns:rdf="http://www.w3.org/1999/02/22-rdf-syntax-ns#"
   xmlns:svg="http://www.w3.org/2000/svg"
   xmlns="http://www.w3.org/2000/svg"
   xmlns:sodipodi="http://sodipodi.sourceforge.net/DTD/sodipodi-0.dtd"
   xmlns:inkscape="http://www.inkscape.org/namespaces/inkscape"
   width="868.81183"
   height="461.62991"
   id="svg32173"
   sodipodi:version="0.32"
   inkscape:version="0.47 r22583"
   sodipodi:docname="NLANAL1.svg"
   inkscape:output_extension="org.inkscape.output.svg.inkscape"
   version="1.1">
  <sodipodi:namedview
     inkscape:document-units="mm"
     id="base"
     pagecolor="#ffffff"
     bordercolor="#666666"
     borderopacity="1.0"
     inkscape:pageopacity="0.0"
     inkscape:pageshadow="2"
     inkscape:zoom="0.5600889"
     inkscape:cx="234.94857"
     inkscape:cy="469.20505"
     inkscape:current-layer="layer1"
     showgrid="true"
     inkscape:object-nodes="false"
     inkscape:object-paths="false"
     inkscape:snap-guide="true"
     objecttolerance="10000"
     gridtolerance="10000"
     guidetolerance="10000"
     inkscape:window-width="1680"
     inkscape:window-height="988"
     inkscape:window-x="-8"
     inkscape:window-y="-8"
     showguides="true"
     inkscape:guide-bbox="true"
     inkscape:snap-nodes="true"
     inkscape:snap-bbox="true"
     inkscape:window-maximized="1"
     inkscape:snap-bbox-midpoints="false"
     inkscape:snap-global="true">
    <inkscape:grid
       snapvisiblegridlinesonly="true"
       empspacing="5"
       type="xygrid"
       id="grid32192"
       visible="true"
       enabled="true"
       dotted="false"
       units="mm"
       spacingx="0.5mm"
       spacingy="0.5mm" />
  </sodipodi:namedview>
  <defs
     id="defs3">
    <inkscape:path-effect
       is_visible="true"
       id="path-effect4671"
       effect="spiro" />
    <inkscape:path-effect
       is_visible="true"
       id="path-effect4643"
       effect="spiro" />
    <inkscape:path-effect
       is_visible="true"
       id="path-effect8232"
       effect="spiro" />
    <inkscape:path-effect
       is_visible="true"
       id="path-effect8228"
       effect="spiro" />
    <inkscape:path-effect
       is_visible="true"
       id="path-effect8082"
       effect="spiro" />
    <inkscape:path-effect
       is_visible="true"
       id="path-effect8078"
       effect="spiro" />
    <inkscape:path-effect
       is_visible="true"
       id="path-effect6606"
       effect="spiro" />
    <inkscape:path-effect
       is_visible="true"
       id="path-effect3743"
       effect="spiro" />
    <inkscape:path-effect
       is_visible="true"
       id="path-effect3642"
       effect="spiro" />
    <inkscape:path-effect
       is_visible="true"
       id="path-effect3638"
       effect="spiro" />
    <inkscape:path-effect
       is_visible="true"
       id="path-effect3540"
       effect="spiro" />
    <inkscape:path-effect
       is_visible="true"
       id="path-effect3536"
       effect="spiro" />
    <inkscape:path-effect
       is_visible="true"
       id="path-effect3532"
       effect="spiro" />
    <inkscape:path-effect
       is_visible="true"
       id="path-effect3484"
       effect="spiro" />
    <inkscape:path-effect
       is_visible="true"
       id="path-effect8594"
       effect="spiro" />
    <inkscape:path-effect
       is_visible="true"
       id="path-effect8566"
       effect="spiro" />
    <inkscape:path-effect
       is_visible="true"
       id="path-effect8243"
       effect="spiro" />
    <inkscape:path-effect
       is_visible="true"
       id="path-effect8225"
       effect="spiro" />
    <marker
       style="overflow:visible"
       id="Arrow1Sstart"
       refX="0"
       refY="0"
       orient="auto"
       inkscape:stockid="Arrow1Sstart">
      <path
         transform="matrix(0.2,0,0,0.2,1.2,0)"
         style="fill-rule:evenodd;stroke:#000000;stroke-width:1pt;marker-start:none"
         d="M 0,0 5,-5 -12.5,0 5,5 0,0 z"
         id="path6137" />
    </marker>
    <inkscape:path-effect
       is_visible="true"
       id="path-effect7711"
       effect="spiro" />
    <inkscape:path-effect
       is_visible="true"
       id="path-effect7707"
       effect="spiro" />
    <inkscape:path-effect
       is_visible="true"
       id="path-effect7703"
       effect="spiro" />
    <inkscape:path-effect
       is_visible="true"
       id="path-effect7699"
       effect="spiro" />
    <inkscape:path-effect
       is_visible="true"
       id="path-effect7695"
       effect="spiro" />
    <marker
       inkscape:stockid="Arrow1Send"
       orient="auto"
       refY="0"
       refX="0"
       id="Arrow1Send"
       style="overflow:visible">
      <path
         id="path6140"
         d="M 0,0 5,-5 -12.5,0 5,5 0,0 z"
         style="fill-rule:evenodd;stroke:#000000;stroke-width:1pt;marker-start:none"
         transform="matrix(-0.2,0,0,-0.2,-1.2,0)" />
    </marker>
    <inkscape:path-effect
       effect="spiro"
       id="path-effect5628"
       is_visible="true" />
    <marker
       inkscape:stockid="Arrow2Sstart"
       orient="auto"
       refY="0"
       refX="0"
       id="Arrow2Sstart"
       style="overflow:visible">
      <path
         id="path6329"
         style="font-size:12px;fill-rule:evenodd;stroke-width:0.625;stroke-linejoin:round"
         d="M 8.7185878,4.0337352 -2.2072895,0.01601326 8.7185884,-4.0017078 c -1.7454984,2.3720609 -1.7354408,5.6174519 -6e-7,8.035443 z"
         transform="matrix(0.3,0,0,0.3,-0.69,0)" />
    </marker>
    <marker
       inkscape:stockid="Arrow2Mstart"
       orient="auto"
       refY="0"
       refX="0"
       id="Arrow2Mstart"
       style="overflow:visible">
      <path
         id="path9565"
         style="font-size:12px;fill-rule:evenodd;stroke-width:0.625;stroke-linejoin:round"
         d="M 8.7185878,4.0337352 -2.2072895,0.01601326 8.7185884,-4.0017078 c -1.7454984,2.3720609 -1.7354408,5.6174519 -6e-7,8.035443 z"
         transform="scale(0.6,0.6)" />
    </marker>
    <marker
       inkscape:stockid="TriangleOutM"
       orient="auto"
       refY="0"
       refX="0"
       id="TriangleOutM"
       style="overflow:visible">
      <path
         id="path9687"
         d="m 5.77,0 -8.65,5 0,-10 8.65,5 z"
         style="fill-rule:evenodd;stroke:#000000;stroke-width:1pt;marker-start:none"
         transform="scale(0.4,0.4)" />
    </marker>
    <marker
       inkscape:stockid="TriangleOutL"
       orient="auto"
       refY="0"
       refX="0"
       id="TriangleOutL"
       style="overflow:visible">
      <path
         id="path9684"
         d="m 5.77,0 -8.65,5 0,-10 8.65,5 z"
         style="fill-rule:evenodd;stroke:#000000;stroke-width:1pt;marker-start:none"
         transform="scale(0.8,0.8)" />
    </marker>
    <marker
       inkscape:stockid="Arrow1Lstart"
       orient="auto"
       refY="0"
       refX="0"
       id="Arrow1Lstart"
       style="overflow:visible">
      <path
         id="path9541"
         d="M 0,0 5,-5 -12.5,0 5,5 0,0 z"
         style="fill-rule:evenodd;stroke:#000000;stroke-width:1pt;marker-start:none"
         transform="matrix(0.8,0,0,0.8,10,0)" />
    </marker>
    <marker
       inkscape:stockid="Arrow1Mend"
       orient="auto"
       refY="0"
       refX="0"
       id="Arrow1Mend"
       style="overflow:visible">
      <path
         id="path9550"
         d="M 0,0 5,-5 -12.5,0 5,5 0,0 z"
         style="fill-rule:evenodd;stroke:#000000;stroke-width:1pt;marker-start:none"
         transform="matrix(-0.4,0,0,-0.4,-4,0)" />
    </marker>
    <marker
       inkscape:stockid="Arrow2Send"
       orient="auto"
       refY="0"
       refX="0"
       id="Arrow2Send"
       style="overflow:visible">
      <path
         id="path9574"
         style="font-size:12px;fill-rule:evenodd;stroke-width:0.625;stroke-linejoin:round"
         d="M 8.7185878,4.0337352 -2.2072895,0.01601326 8.7185884,-4.0017078 c -1.7454984,2.3720609 -1.7354408,5.6174519 -6e-7,8.035443 z"
         transform="matrix(-0.3,0,0,-0.3,0.69,0)" />
    </marker>
    <marker
       inkscape:stockid="Arrow2Lend"
       orient="auto"
       refY="0"
       refX="0"
       id="Arrow2Lend"
       style="overflow:visible">
      <path
         id="path9562"
         style="font-size:12px;fill-rule:evenodd;stroke-width:0.625;stroke-linejoin:round"
         d="M 8.7185878,4.0337352 -2.2072895,0.01601326 8.7185884,-4.0017078 c -1.7454984,2.3720609 -1.7354408,5.6174519 -6e-7,8.035443 z"
         transform="matrix(-1.1,0,0,-1.1,-1.1,0)" />
    </marker>
    <marker
       style="overflow:visible"
       id="marker11348"
       refX="0"
       refY="0"
       orient="auto"
       inkscape:stockid="Arrow2Mend">
      <path
         transform="scale(-0.6,-0.6)"
         d="M 8.7185878,4.0337352 -2.2072895,0.01601326 8.7185884,-4.0017078 c -1.7454984,2.3720609 -1.7354408,5.6174519 -6e-7,8.035443 z"
         style="font-size:12px;fill-rule:evenodd;stroke-width:0.625;stroke-linejoin:round"
         id="path11350" />
    </marker>
    <inkscape:perspective
       sodipodi:type="inkscape:persp3d"
       inkscape:vp_x="0 : 526.18109 : 1"
       inkscape:vp_y="0 : 1000 : 0"
       inkscape:vp_z="744.09448 : 526.18109 : 1"
       inkscape:persp3d-origin="372.04724 : 350.78739 : 1"
       id="perspective32179" />
    <inkscape:perspective
       id="perspective3648"
       inkscape:persp3d-origin="372.04724 : 350.78739 : 1"
       inkscape:vp_z="744.09448 : 526.18109 : 1"
       inkscape:vp_y="0 : 1000 : 0"
       inkscape:vp_x="0 : 526.18109 : 1"
       sodipodi:type="inkscape:persp3d" />
    <marker
       inkscape:stockid="Arrow2Mend"
       orient="auto"
       refY="0"
       refX="0"
       id="marker3644"
       style="overflow:visible">
      <path
         id="path3646"
         style="font-size:12px;fill-rule:evenodd;stroke-width:0.625;stroke-linejoin:round"
         d="M 8.7185878,4.0337352 -2.2072895,0.01601326 8.7185884,-4.0017078 c -1.7454984,2.3720609 -1.7354408,5.6174519 -6e-7,8.035443 z"
         transform="scale(-0.6,-0.6)" />
    </marker>
    <marker
       style="overflow:visible"
       id="marker3640"
       refX="0"
       refY="0"
       orient="auto"
       inkscape:stockid="Arrow2Lend">
      <path
         transform="matrix(-1.1,0,0,-1.1,-1.1,0)"
         d="M 8.7185878,4.0337352 -2.2072895,0.01601326 8.7185884,-4.0017078 c -1.7454984,2.3720609 -1.7354408,5.6174519 -6e-7,8.035443 z"
         style="font-size:12px;fill-rule:evenodd;stroke-width:0.625;stroke-linejoin:round"
         id="path3642" />
    </marker>
    <marker
       style="overflow:visible"
       id="marker3636"
       refX="0"
       refY="0"
       orient="auto"
       inkscape:stockid="Arrow2Send">
      <path
         transform="matrix(-0.3,0,0,-0.3,0.69,0)"
         d="M 8.7185878,4.0337352 -2.2072895,0.01601326 8.7185884,-4.0017078 c -1.7454984,2.3720609 -1.7354408,5.6174519 -6e-7,8.035443 z"
         style="font-size:12px;fill-rule:evenodd;stroke-width:0.625;stroke-linejoin:round"
         id="path3638" />
    </marker>
    <marker
       style="overflow:visible"
       id="marker3632"
       refX="0"
       refY="0"
       orient="auto"
       inkscape:stockid="Arrow1Mend">
      <path
         transform="matrix(-0.4,0,0,-0.4,-4,0)"
         style="fill-rule:evenodd;stroke:#000000;stroke-width:1pt;marker-start:none"
         d="M 0,0 5,-5 -12.5,0 5,5 0,0 z"
         id="path3634" />
    </marker>
    <marker
       style="overflow:visible"
       id="marker3628"
       refX="0"
       refY="0"
       orient="auto"
       inkscape:stockid="Arrow1Lstart">
      <path
         transform="matrix(0.8,0,0,0.8,10,0)"
         style="fill-rule:evenodd;stroke:#000000;stroke-width:1pt;marker-start:none"
         d="M 0,0 5,-5 -12.5,0 5,5 0,0 z"
         id="path3630" />
    </marker>
    <marker
       style="overflow:visible"
       id="marker3624"
       refX="0"
       refY="0"
       orient="auto"
       inkscape:stockid="TriangleOutL">
      <path
         transform="scale(0.8,0.8)"
         style="fill-rule:evenodd;stroke:#000000;stroke-width:1pt;marker-start:none"
         d="m 5.77,0 -8.65,5 0,-10 8.65,5 z"
         id="path3626" />
    </marker>
    <marker
       style="overflow:visible"
       id="marker3620"
       refX="0"
       refY="0"
       orient="auto"
       inkscape:stockid="TriangleOutM">
      <path
         transform="scale(0.4,0.4)"
         style="fill-rule:evenodd;stroke:#000000;stroke-width:1pt;marker-start:none"
         d="m 5.77,0 -8.65,5 0,-10 8.65,5 z"
         id="path3622" />
    </marker>
    <marker
       style="overflow:visible"
       id="marker3616"
       refX="0"
       refY="0"
       orient="auto"
       inkscape:stockid="Arrow2Mstart">
      <path
         transform="scale(0.6,0.6)"
         d="M 8.7185878,4.0337352 -2.2072895,0.01601326 8.7185884,-4.0017078 c -1.7454984,2.3720609 -1.7354408,5.6174519 -6e-7,8.035443 z"
         style="font-size:12px;fill-rule:evenodd;stroke-width:0.625;stroke-linejoin:round"
         id="path3618" />
    </marker>
    <inkscape:perspective
       id="perspective4468"
       inkscape:persp3d-origin="0.5 : 0.33333333 : 1"
       inkscape:vp_z="1 : 0.5 : 1"
       inkscape:vp_y="0 : 1000 : 0"
       inkscape:vp_x="0 : 0.5 : 1"
       sodipodi:type="inkscape:persp3d" />
    <inkscape:perspective
       id="perspective4492"
       inkscape:persp3d-origin="0.5 : 0.33333333 : 1"
       inkscape:vp_z="1 : 0.5 : 1"
       inkscape:vp_y="0 : 1000 : 0"
       inkscape:vp_x="0 : 0.5 : 1"
       sodipodi:type="inkscape:persp3d" />
    <inkscape:perspective
       id="perspective4492-4"
       inkscape:persp3d-origin="0.5 : 0.33333333 : 1"
       inkscape:vp_z="1 : 0.5 : 1"
       inkscape:vp_y="0 : 1000 : 0"
       inkscape:vp_x="0 : 0.5 : 1"
       sodipodi:type="inkscape:persp3d" />
    <inkscape:perspective
       id="perspective3258"
       inkscape:persp3d-origin="0.5 : 0.33333333 : 1"
       inkscape:vp_z="1 : 0.5 : 1"
       inkscape:vp_y="0 : 1000 : 0"
       inkscape:vp_x="0 : 0.5 : 1"
       sodipodi:type="inkscape:persp3d" />
    <marker
       inkscape:stockid="Arrow2Mstart"
       orient="auto"
       refY="0"
       refX="0"
       id="Arrow2Mstart-1"
       style="overflow:visible">
      <path
         id="path9565-7"
         style="font-size:12px;fill-rule:evenodd;stroke-width:0.625;stroke-linejoin:round"
         d="M 8.7185878,4.0337352 -2.2072895,0.01601326 8.7185884,-4.0017078 c -1.7454984,2.3720609 -1.7354408,5.6174519 -6e-7,8.035443 z"
         transform="scale(0.6,0.6)" />
    </marker>
    <marker
       style="overflow:visible"
       id="marker11348-4"
       refX="0"
       refY="0"
       orient="auto"
       inkscape:stockid="Arrow2Mend">
      <path
         transform="scale(-0.6,-0.6)"
         d="M 8.7185878,4.0337352 -2.2072895,0.01601326 8.7185884,-4.0017078 c -1.7454984,2.3720609 -1.7354408,5.6174519 -6e-7,8.035443 z"
         style="font-size:12px;fill-rule:evenodd;stroke-width:0.625;stroke-linejoin:round"
         id="path11350-0" />
    </marker>
    <inkscape:perspective
       id="perspective3373"
       inkscape:persp3d-origin="0.5 : 0.33333333 : 1"
       inkscape:vp_z="1 : 0.5 : 1"
       inkscape:vp_y="0 : 1000 : 0"
       inkscape:vp_x="0 : 0.5 : 1"
       sodipodi:type="inkscape:persp3d" />
    <marker
       style="overflow:visible"
       id="marker11348-1"
       refX="0"
       refY="0"
       orient="auto"
       inkscape:stockid="Arrow2Mend">
      <path
         transform="scale(-0.6,-0.6)"
         d="M 8.7185878,4.0337352 -2.2072895,0.01601326 8.7185884,-4.0017078 c -1.7454984,2.3720609 -1.7354408,5.6174519 -6e-7,8.035443 z"
         style="font-size:12px;fill-rule:evenodd;stroke-width:0.625;stroke-linejoin:round"
         id="path11350-8" />
    </marker>
    <inkscape:perspective
       id="perspective3456"
       inkscape:persp3d-origin="0.5 : 0.33333333 : 1"
       inkscape:vp_z="1 : 0.5 : 1"
       inkscape:vp_y="0 : 1000 : 0"
       inkscape:vp_x="0 : 0.5 : 1"
       sodipodi:type="inkscape:persp3d" />
    <marker
       inkscape:stockid="Arrow2Mstart"
       orient="auto"
       refY="0"
       refX="0"
       id="Arrow2Mstart-3"
       style="overflow:visible">
      <path
         id="path9565-3"
         style="font-size:12px;fill-rule:evenodd;stroke-width:0.625;stroke-linejoin:round"
         d="M 8.7185878,4.0337352 -2.2072895,0.01601326 8.7185884,-4.0017078 c -1.7454984,2.3720609 -1.7354408,5.6174519 -6e-7,8.035443 z"
         transform="scale(0.6,0.6)" />
    </marker>
    <inkscape:perspective
       id="perspective3502"
       inkscape:persp3d-origin="0.5 : 0.33333333 : 1"
       inkscape:vp_z="1 : 0.5 : 1"
       inkscape:vp_y="0 : 1000 : 0"
       inkscape:vp_x="0 : 0.5 : 1"
       sodipodi:type="inkscape:persp3d" />
    <marker
       inkscape:stockid="Arrow2Mstart"
       orient="auto"
       refY="0"
       refX="0"
       id="Arrow2Mstart-2"
       style="overflow:visible">
      <path
         id="path9565-77"
         style="font-size:12px;fill-rule:evenodd;stroke-width:0.625;stroke-linejoin:round"
         d="M 8.7185878,4.0337352 -2.2072895,0.01601326 8.7185884,-4.0017078 c -1.7454984,2.3720609 -1.7354408,5.6174519 -6e-7,8.035443 z"
         transform="scale(0.6,0.6)" />
    </marker>
    <marker
       inkscape:stockid="Arrow2Mstart"
       orient="auto"
       refY="0"
       refX="0"
       id="marker3508"
       style="overflow:visible">
      <path
         id="path3510"
         style="font-size:12px;fill-rule:evenodd;stroke-width:0.625;stroke-linejoin:round"
         d="M 8.7185878,4.0337352 -2.2072895,0.01601326 8.7185884,-4.0017078 c -1.7454984,2.3720609 -1.7354408,5.6174519 -6e-7,8.035443 z"
         transform="scale(0.6,0.6)" />
    </marker>
    <inkscape:perspective
       id="perspective3577"
       inkscape:persp3d-origin="0.5 : 0.33333333 : 1"
       inkscape:vp_z="1 : 0.5 : 1"
       inkscape:vp_y="0 : 1000 : 0"
       inkscape:vp_x="0 : 0.5 : 1"
       sodipodi:type="inkscape:persp3d" />
    <marker
       style="overflow:visible"
       id="marker11348-6"
       refX="0"
       refY="0"
       orient="auto"
       inkscape:stockid="Arrow2Mend">
      <path
         transform="scale(-0.6,-0.6)"
         d="M 8.7185878,4.0337352 -2.2072895,0.01601326 8.7185884,-4.0017078 c -1.7454984,2.3720609 -1.7354408,5.6174519 -6e-7,8.035443 z"
         style="font-size:12px;fill-rule:evenodd;stroke-width:0.625;stroke-linejoin:round"
         id="path11350-5" />
    </marker>
    <marker
       style="overflow:visible"
       id="marker3583"
       refX="0"
       refY="0"
       orient="auto"
       inkscape:stockid="Arrow2Mend">
      <path
         transform="scale(-0.6,-0.6)"
         d="M 8.7185878,4.0337352 -2.2072895,0.01601326 8.7185884,-4.0017078 c -1.7454984,2.3720609 -1.7354408,5.6174519 -6e-7,8.035443 z"
         style="font-size:12px;fill-rule:evenodd;stroke-width:0.625;stroke-linejoin:round"
         id="path3585" />
    </marker>
    <inkscape:perspective
       id="perspective3664"
       inkscape:persp3d-origin="0.5 : 0.33333333 : 1"
       inkscape:vp_z="1 : 0.5 : 1"
       inkscape:vp_y="0 : 1000 : 0"
       inkscape:vp_x="0 : 0.5 : 1"
       sodipodi:type="inkscape:persp3d" />
    <marker
       inkscape:stockid="Arrow2Mstart"
       orient="auto"
       refY="0"
       refX="0"
       id="Arrow2Mstart-9"
       style="overflow:visible">
      <path
         id="path9565-6"
         style="font-size:12px;fill-rule:evenodd;stroke-width:0.625;stroke-linejoin:round"
         d="M 8.7185878,4.0337352 -2.2072895,0.01601326 8.7185884,-4.0017078 c -1.7454984,2.3720609 -1.7354408,5.6174519 -6e-7,8.035443 z"
         transform="scale(0.6,0.6)" />
    </marker>
    <marker
       inkscape:stockid="Arrow2Mstart"
       orient="auto"
       refY="0"
       refX="0"
       id="marker3670"
       style="overflow:visible">
      <path
         id="path3672"
         style="font-size:12px;fill-rule:evenodd;stroke-width:0.625;stroke-linejoin:round"
         d="M 8.7185878,4.0337352 -2.2072895,0.01601326 8.7185884,-4.0017078 c -1.7454984,2.3720609 -1.7354408,5.6174519 -6e-7,8.035443 z"
         transform="scale(0.6,0.6)" />
    </marker>
    <inkscape:perspective
       id="perspective3739"
       inkscape:persp3d-origin="0.5 : 0.33333333 : 1"
       inkscape:vp_z="1 : 0.5 : 1"
       inkscape:vp_y="0 : 1000 : 0"
       inkscape:vp_x="0 : 0.5 : 1"
       sodipodi:type="inkscape:persp3d" />
    <marker
       inkscape:stockid="Arrow2Mstart"
       orient="auto"
       refY="0"
       refX="0"
       id="Arrow2Mstart-6"
       style="overflow:visible">
      <path
         id="path9565-36"
         style="font-size:12px;fill-rule:evenodd;stroke-width:0.625;stroke-linejoin:round"
         d="M 8.7185878,4.0337352 -2.2072895,0.01601326 8.7185884,-4.0017078 c -1.7454984,2.3720609 -1.7354408,5.6174519 -6e-7,8.035443 z"
         transform="scale(0.6,0.6)" />
    </marker>
    <inkscape:perspective
       id="perspective3815"
       inkscape:persp3d-origin="0.5 : 0.33333333 : 1"
       inkscape:vp_z="1 : 0.5 : 1"
       inkscape:vp_y="0 : 1000 : 0"
       inkscape:vp_x="0 : 0.5 : 1"
       sodipodi:type="inkscape:persp3d" />
    <inkscape:perspective
       id="perspective3837"
       inkscape:persp3d-origin="0.5 : 0.33333333 : 1"
       inkscape:vp_z="1 : 0.5 : 1"
       inkscape:vp_y="0 : 1000 : 0"
       inkscape:vp_x="0 : 0.5 : 1"
       sodipodi:type="inkscape:persp3d" />
    <inkscape:perspective
       id="perspective3863"
       inkscape:persp3d-origin="0.5 : 0.33333333 : 1"
       inkscape:vp_z="1 : 0.5 : 1"
       inkscape:vp_y="0 : 1000 : 0"
       inkscape:vp_x="0 : 0.5 : 1"
       sodipodi:type="inkscape:persp3d" />
    <inkscape:perspective
       id="perspective3863-6"
       inkscape:persp3d-origin="0.5 : 0.33333333 : 1"
       inkscape:vp_z="1 : 0.5 : 1"
       inkscape:vp_y="0 : 1000 : 0"
       inkscape:vp_x="0 : 0.5 : 1"
       sodipodi:type="inkscape:persp3d" />
    <inkscape:perspective
       id="perspective3898"
       inkscape:persp3d-origin="0.5 : 0.33333333 : 1"
       inkscape:vp_z="1 : 0.5 : 1"
       inkscape:vp_y="0 : 1000 : 0"
       inkscape:vp_x="0 : 0.5 : 1"
       sodipodi:type="inkscape:persp3d" />
    <inkscape:perspective
       id="perspective3898-6"
       inkscape:persp3d-origin="0.5 : 0.33333333 : 1"
       inkscape:vp_z="1 : 0.5 : 1"
       inkscape:vp_y="0 : 1000 : 0"
       inkscape:vp_x="0 : 0.5 : 1"
       sodipodi:type="inkscape:persp3d" />
    <inkscape:perspective
       id="perspective3937"
       inkscape:persp3d-origin="0.5 : 0.33333333 : 1"
       inkscape:vp_z="1 : 0.5 : 1"
       inkscape:vp_y="0 : 1000 : 0"
       inkscape:vp_x="0 : 0.5 : 1"
       sodipodi:type="inkscape:persp3d" />
    <marker
       style="overflow:visible"
       id="marker11348-7"
       refX="0"
       refY="0"
       orient="auto"
       inkscape:stockid="Arrow2Mend">
      <path
         transform="scale(-0.6,-0.6)"
         d="M 8.7185878,4.0337352 -2.2072895,0.01601326 8.7185884,-4.0017078 c -1.7454984,2.3720609 -1.7354408,5.6174519 -6e-7,8.035443 z"
         style="font-size:12px;fill-rule:evenodd;stroke-width:0.625;stroke-linejoin:round"
         id="path11350-54" />
    </marker>
    <marker
       style="overflow:visible"
       id="marker3943"
       refX="0"
       refY="0"
       orient="auto"
       inkscape:stockid="Arrow2Mend">
      <path
         transform="scale(-0.6,-0.6)"
         d="M 8.7185878,4.0337352 -2.2072895,0.01601326 8.7185884,-4.0017078 c -1.7454984,2.3720609 -1.7354408,5.6174519 -6e-7,8.035443 z"
         style="font-size:12px;fill-rule:evenodd;stroke-width:0.625;stroke-linejoin:round"
         id="path3945" />
    </marker>
    <inkscape:perspective
       id="perspective4033"
       inkscape:persp3d-origin="0.5 : 0.33333333 : 1"
       inkscape:vp_z="1 : 0.5 : 1"
       inkscape:vp_y="0 : 1000 : 0"
       inkscape:vp_x="0 : 0.5 : 1"
       sodipodi:type="inkscape:persp3d" />
    <marker
       inkscape:stockid="Arrow2Mstart"
       orient="auto"
       refY="0"
       refX="0"
       id="Arrow2Mstart-8"
       style="overflow:visible">
      <path
         id="path9565-2"
         style="font-size:12px;fill-rule:evenodd;stroke-width:0.625;stroke-linejoin:round"
         d="M 8.7185878,4.0337352 -2.2072895,0.01601326 8.7185884,-4.0017078 c -1.7454984,2.3720609 -1.7354408,5.6174519 -6e-7,8.035443 z"
         transform="scale(0.6,0.6)" />
    </marker>
    <marker
       inkscape:stockid="Arrow2Mstart"
       orient="auto"
       refY="0"
       refX="0"
       id="marker4039"
       style="overflow:visible">
      <path
         id="path4041"
         style="font-size:12px;fill-rule:evenodd;stroke-width:0.625;stroke-linejoin:round"
         d="M 8.7185878,4.0337352 -2.2072895,0.01601326 8.7185884,-4.0017078 c -1.7454984,2.3720609 -1.7354408,5.6174519 -6e-7,8.035443 z"
         transform="scale(0.6,0.6)" />
    </marker>
    <inkscape:perspective
       id="perspective4119"
       inkscape:persp3d-origin="0.5 : 0.33333333 : 1"
       inkscape:vp_z="1 : 0.5 : 1"
       inkscape:vp_y="0 : 1000 : 0"
       inkscape:vp_x="0 : 0.5 : 1"
       sodipodi:type="inkscape:persp3d" />
    <inkscape:perspective
       id="perspective4141"
       inkscape:persp3d-origin="0.5 : 0.33333333 : 1"
       inkscape:vp_z="1 : 0.5 : 1"
       inkscape:vp_y="0 : 1000 : 0"
       inkscape:vp_x="0 : 0.5 : 1"
       sodipodi:type="inkscape:persp3d" />
    <inkscape:perspective
       id="perspective4196"
       inkscape:persp3d-origin="0.5 : 0.33333333 : 1"
       inkscape:vp_z="1 : 0.5 : 1"
       inkscape:vp_y="0 : 1000 : 0"
       inkscape:vp_x="0 : 0.5 : 1"
       sodipodi:type="inkscape:persp3d" />
    <inkscape:perspective
       id="perspective4218"
       inkscape:persp3d-origin="0.5 : 0.33333333 : 1"
       inkscape:vp_z="1 : 0.5 : 1"
       inkscape:vp_y="0 : 1000 : 0"
       inkscape:vp_x="0 : 0.5 : 1"
       sodipodi:type="inkscape:persp3d" />
    <inkscape:perspective
       id="perspective4358"
       inkscape:persp3d-origin="0.5 : 0.33333333 : 1"
       inkscape:vp_z="1 : 0.5 : 1"
       inkscape:vp_y="0 : 1000 : 0"
       inkscape:vp_x="0 : 0.5 : 1"
       sodipodi:type="inkscape:persp3d" />
    <marker
       inkscape:stockid="Arrow1SendY"
       orient="auto"
       refY="0"
       refX="0"
       id="Arrow1SendY"
       style="overflow:visible">
      <path
         id="path6731"
         d="M 0,0 5,-5 -12.5,0 5,5 0,0 z"
         style="fill:#0000ff;fill-rule:evenodd;stroke:#0000ff;stroke-width:1pt;marker-start:none"
         transform="matrix(-0.2,0,0,-0.2,-1.2,0)" />
    </marker>
    <inkscape:perspective
       sodipodi:type="inkscape:persp3d"
       inkscape:vp_x="0 : 0.5 : 1"
       inkscape:vp_y="0 : 1000 : 0"
       inkscape:vp_z="1 : 0.5 : 1"
       inkscape:persp3d-origin="0.5 : 0.33333333 : 1"
       id="perspective8505" />
    <marker
       inkscape:stockid="Arrow1Send"
       orient="auto"
       refY="0"
       refX="0"
       id="Arrow1Send-7"
       style="overflow:visible">
      <path
         id="path6140-4"
         d="M 0,0 5,-5 -12.5,0 5,5 0,0 z"
         style="fill-rule:evenodd;stroke:#000000;stroke-width:1pt;marker-start:none"
         transform="matrix(-0.2,0,0,-0.2,-1.2,0)" />
    </marker>
    <inkscape:path-effect
       is_visible="true"
       id="path-effect8243-0"
       effect="spiro" />
    <inkscape:perspective
       sodipodi:type="inkscape:persp3d"
       inkscape:vp_x="0 : 0.5 : 1"
       inkscape:vp_y="0 : 1000 : 0"
       inkscape:vp_z="1 : 0.5 : 1"
       inkscape:persp3d-origin="0.5 : 0.33333333 : 1"
       id="perspective8505-4" />
    <marker
       inkscape:stockid="Arrow1Send"
       orient="auto"
       refY="0"
       refX="0"
       id="Arrow1Send-8"
       style="overflow:visible">
      <path
         id="path6140-8"
         d="M 0,0 5,-5 -12.5,0 5,5 0,0 z"
         style="fill-rule:evenodd;stroke:#000000;stroke-width:1pt;marker-start:none"
         transform="matrix(-0.2,0,0,-0.2,-1.2,0)" />
    </marker>
    <inkscape:path-effect
       is_visible="true"
       id="path-effect8243-2"
       effect="spiro" />
    <inkscape:perspective
       sodipodi:type="inkscape:persp3d"
       inkscape:vp_x="0 : 0.5 : 1"
       inkscape:vp_y="0 : 1000 : 0"
       inkscape:vp_z="1 : 0.5 : 1"
       inkscape:persp3d-origin="0.5 : 0.33333333 : 1"
       id="perspective8505-5" />
    <marker
       inkscape:stockid="Arrow1Send"
       orient="auto"
       refY="0"
       refX="0"
       id="Arrow1Send-5"
       style="overflow:visible">
      <path
         id="path6140-1"
         d="M 0,0 5,-5 -12.5,0 5,5 0,0 z"
         style="fill-rule:evenodd;stroke:#000000;stroke-width:1pt;marker-start:none"
         transform="matrix(-0.2,0,0,-0.2,-1.2,0)" />
    </marker>
    <inkscape:path-effect
       is_visible="true"
       id="path-effect8243-7"
       effect="spiro" />
    <inkscape:perspective
       sodipodi:type="inkscape:persp3d"
       inkscape:vp_x="0 : 0.5 : 1"
       inkscape:vp_y="0 : 1000 : 0"
       inkscape:vp_z="1 : 0.5 : 1"
       inkscape:persp3d-origin="0.5 : 0.33333333 : 1"
       id="perspective8618" />
    <marker
       inkscape:stockid="Arrow1Send"
       orient="auto"
       refY="0"
       refX="0"
       id="Arrow1Send-1"
       style="overflow:visible">
      <path
         id="path6140-5"
         d="M 0,0 5,-5 -12.5,0 5,5 0,0 z"
         style="fill-rule:evenodd;stroke:#000000;stroke-width:1pt;marker-start:none"
         transform="matrix(-0.2,0,0,-0.2,-1.2,0)" />
    </marker>
    <inkscape:path-effect
       is_visible="true"
       id="path-effect8243-27"
       effect="spiro" />
    <inkscape:perspective
       sodipodi:type="inkscape:persp3d"
       inkscape:vp_x="0 : 0.5 : 1"
       inkscape:vp_y="0 : 1000 : 0"
       inkscape:vp_z="1 : 0.5 : 1"
       inkscape:persp3d-origin="0.5 : 0.33333333 : 1"
       id="perspective8649" />
    <marker
       inkscape:stockid="Arrow1Send"
       orient="auto"
       refY="0"
       refX="0"
       id="Arrow1Send-14"
       style="overflow:visible">
      <path
         id="path6140-2"
         d="M 0,0 5,-5 -12.5,0 5,5 0,0 z"
         style="fill-rule:evenodd;stroke:#000000;stroke-width:1pt;marker-start:none"
         transform="matrix(-0.2,0,0,-0.2,-1.2,0)" />
    </marker>
    <inkscape:path-effect
       is_visible="true"
       id="path-effect8243-3"
       effect="spiro" />
    <marker
       inkscape:stockid="Arrow1Send"
       orient="auto"
       refY="0"
       refX="0"
       id="marker8656"
       style="overflow:visible">
      <path
         id="path8658"
         d="M 0,0 5,-5 -12.5,0 5,5 0,0 z"
         style="fill-rule:evenodd;stroke:#000000;stroke-width:1pt;marker-start:none"
         transform="matrix(-0.2,0,0,-0.2,-1.2,0)" />
    </marker>
    <inkscape:path-effect
       is_visible="true"
       id="path-effect8243-0-2"
       effect="spiro" />
    <marker
       inkscape:stockid="Arrow1Send"
       orient="auto"
       refY="0"
       refX="0"
       id="marker8661"
       style="overflow:visible">
      <path
         id="path8663"
         d="M 0,0 5,-5 -12.5,0 5,5 0,0 z"
         style="fill-rule:evenodd;stroke:#000000;stroke-width:1pt;marker-start:none"
         transform="matrix(-0.2,0,0,-0.2,-1.2,0)" />
    </marker>
    <inkscape:path-effect
       is_visible="true"
       id="path-effect8243-2-2"
       effect="spiro" />
    <marker
       inkscape:stockid="Arrow1Send"
       orient="auto"
       refY="0"
       refX="0"
       id="marker8666"
       style="overflow:visible">
      <path
         id="path8668"
         d="M 0,0 5,-5 -12.5,0 5,5 0,0 z"
         style="fill-rule:evenodd;stroke:#000000;stroke-width:1pt;marker-start:none"
         transform="matrix(-0.2,0,0,-0.2,-1.2,0)" />
    </marker>
    <inkscape:path-effect
       is_visible="true"
       id="path-effect8243-7-1"
       effect="spiro" />
    <marker
       inkscape:stockid="Arrow1Send"
       orient="auto"
       refY="0"
       refX="0"
       id="marker8671"
       style="overflow:visible">
      <path
         id="path8673"
         d="M 0,0 5,-5 -12.5,0 5,5 0,0 z"
         style="fill-rule:evenodd;stroke:#000000;stroke-width:1pt;marker-start:none"
         transform="matrix(-0.2,0,0,-0.2,-1.2,0)" />
    </marker>
    <inkscape:path-effect
       is_visible="true"
       id="path-effect8243-27-6"
       effect="spiro" />
    <inkscape:path-effect
       is_visible="true"
       id="path-effect8566-8"
       effect="spiro" />
    <inkscape:path-effect
       is_visible="true"
       id="path-effect8594-5"
       effect="spiro" />
    <inkscape:perspective
       sodipodi:type="inkscape:persp3d"
       inkscape:vp_x="0 : 0.5 : 1"
       inkscape:vp_y="0 : 1000 : 0"
       inkscape:vp_z="1 : 0.5 : 1"
       inkscape:persp3d-origin="0.5 : 0.33333333 : 1"
       id="perspective3413" />
    <inkscape:perspective
       sodipodi:type="inkscape:persp3d"
       inkscape:vp_x="0 : 0.5 : 1"
       inkscape:vp_y="0 : 1000 : 0"
       inkscape:vp_z="1 : 0.5 : 1"
       inkscape:persp3d-origin="0.5 : 0.33333333 : 1"
       id="perspective3413-8" />
    <inkscape:perspective
       sodipodi:type="inkscape:persp3d"
       inkscape:vp_x="0 : 0.5 : 1"
       inkscape:vp_y="0 : 1000 : 0"
       inkscape:vp_z="1 : 0.5 : 1"
       inkscape:persp3d-origin="0.5 : 0.33333333 : 1"
       id="perspective3494" />
    <inkscape:perspective
       sodipodi:type="inkscape:persp3d"
       inkscape:vp_x="0 : 0.5 : 1"
       inkscape:vp_y="0 : 1000 : 0"
       inkscape:vp_z="1 : 0.5 : 1"
       inkscape:persp3d-origin="0.5 : 0.33333333 : 1"
       id="perspective3516" />
    <inkscape:perspective
       sodipodi:type="inkscape:persp3d"
       inkscape:vp_x="0 : 0.5 : 1"
       inkscape:vp_y="0 : 1000 : 0"
       inkscape:vp_z="1 : 0.5 : 1"
       inkscape:persp3d-origin="0.5 : 0.33333333 : 1"
       id="perspective3550" />
    <inkscape:perspective
       sodipodi:type="inkscape:persp3d"
       inkscape:vp_x="0 : 0.5 : 1"
       inkscape:vp_y="0 : 1000 : 0"
       inkscape:vp_z="1 : 0.5 : 1"
       inkscape:persp3d-origin="0.5 : 0.33333333 : 1"
       id="perspective3593" />
    <inkscape:perspective
       sodipodi:type="inkscape:persp3d"
       inkscape:vp_x="0 : 0.5 : 1"
       inkscape:vp_y="0 : 1000 : 0"
       inkscape:vp_z="1 : 0.5 : 1"
       inkscape:persp3d-origin="0.5 : 0.33333333 : 1"
       id="perspective3593-7" />
    <inkscape:perspective
       sodipodi:type="inkscape:persp3d"
       inkscape:vp_x="0 : 0.5 : 1"
       inkscape:vp_y="0 : 1000 : 0"
       inkscape:vp_z="1 : 0.5 : 1"
       inkscape:persp3d-origin="0.5 : 0.33333333 : 1"
       id="perspective3652" />
    <marker
       inkscape:stockid="Arrow2Send"
       orient="auto"
       refY="0"
       refX="0"
       id="Arrow2Send-9"
       style="overflow:visible">
      <path
         id="path9574-5"
         style="font-size:12px;fill-rule:evenodd;stroke-width:0.625;stroke-linejoin:round"
         d="M 8.7185878,4.0337352 -2.2072895,0.01601326 8.7185884,-4.0017078 c -1.7454984,2.3720609 -1.7354408,5.6174519 -6e-7,8.035443 z"
         transform="matrix(-0.3,0,0,-0.3,0.69,0)" />
    </marker>
    <marker
       inkscape:stockid="Arrow2Send"
       orient="auto"
       refY="0"
       refX="0"
       id="marker3658"
       style="overflow:visible">
      <path
         id="path3660-4"
         style="font-size:12px;fill-rule:evenodd;stroke-width:0.625;stroke-linejoin:round"
         d="M 8.7185878,4.0337352 -2.2072895,0.01601326 8.7185884,-4.0017078 c -1.7454984,2.3720609 -1.7354408,5.6174519 -6e-7,8.035443 z"
         transform="matrix(-0.3,0,0,-0.3,0.69,0)" />
    </marker>
    <marker
       inkscape:stockid="Arrow2Send"
       orient="auto"
       refY="0"
       refX="0"
       id="marker3662"
       style="overflow:visible">
      <path
         id="path3664-3"
         style="font-size:12px;fill-rule:evenodd;stroke-width:0.625;stroke-linejoin:round"
         d="M 8.7185878,4.0337352 -2.2072895,0.01601326 8.7185884,-4.0017078 c -1.7454984,2.3720609 -1.7354408,5.6174519 -6e-7,8.035443 z"
         transform="matrix(-0.3,0,0,-0.3,0.69,0)" />
    </marker>
    <inkscape:perspective
       sodipodi:type="inkscape:persp3d"
       inkscape:vp_x="0 : 0.5 : 1"
       inkscape:vp_y="0 : 1000 : 0"
       inkscape:vp_z="1 : 0.5 : 1"
       inkscape:persp3d-origin="0.5 : 0.33333333 : 1"
       id="perspective3715" />
    <inkscape:perspective
       sodipodi:type="inkscape:persp3d"
       inkscape:vp_x="0 : 0.5 : 1"
       inkscape:vp_y="0 : 1000 : 0"
       inkscape:vp_z="1 : 0.5 : 1"
       inkscape:persp3d-origin="0.5 : 0.33333333 : 1"
       id="perspective6616" />
    <inkscape:path-effect
       is_visible="true"
       id="path-effect6606-4"
       effect="spiro" />
    <inkscape:path-effect
       is_visible="true"
       id="path-effect3743-2"
       effect="spiro" />
    <marker
       inkscape:stockid="Arrow2Send"
       orient="auto"
       refY="0"
       refX="0"
       id="Arrow2Send-7"
       style="overflow:visible">
      <path
         id="path9574-7"
         style="font-size:12px;fill-rule:evenodd;stroke-width:0.625;stroke-linejoin:round"
         d="M 8.7185878,4.0337352 -2.2072895,0.01601326 8.7185884,-4.0017078 c -1.7454984,2.3720609 -1.7354408,5.6174519 -6e-7,8.035443 z"
         transform="matrix(-0.3,0,0,-0.3,0.69,0)" />
    </marker>
    <marker
       inkscape:stockid="Arrow2Send"
       orient="auto"
       refY="0"
       refX="0"
       id="marker6624"
       style="overflow:visible">
      <path
         id="path6626"
         style="font-size:12px;fill-rule:evenodd;stroke-width:0.625;stroke-linejoin:round"
         d="M 8.7185878,4.0337352 -2.2072895,0.01601326 8.7185884,-4.0017078 c -1.7454984,2.3720609 -1.7354408,5.6174519 -6e-7,8.035443 z"
         transform="matrix(-0.3,0,0,-0.3,0.69,0)" />
    </marker>
    <marker
       inkscape:stockid="Arrow2Send"
       orient="auto"
       refY="0"
       refX="0"
       id="marker6628"
       style="overflow:visible">
      <path
         id="path6630"
         style="font-size:12px;fill-rule:evenodd;stroke-width:0.625;stroke-linejoin:round"
         d="M 8.7185878,4.0337352 -2.2072895,0.01601326 8.7185884,-4.0017078 c -1.7454984,2.3720609 -1.7354408,5.6174519 -6e-7,8.035443 z"
         transform="matrix(-0.3,0,0,-0.3,0.69,0)" />
    </marker>
    <inkscape:path-effect
       is_visible="true"
       id="path-effect3642-9"
       effect="spiro" />
    <inkscape:path-effect
       is_visible="true"
       id="path-effect3638-3"
       effect="spiro" />
    <inkscape:path-effect
       is_visible="true"
       id="path-effect3540-1"
       effect="spiro" />
    <inkscape:path-effect
       is_visible="true"
       id="path-effect3536-9"
       effect="spiro" />
    <inkscape:path-effect
       is_visible="true"
       id="path-effect3532-8"
       effect="spiro" />
    <inkscape:path-effect
       is_visible="true"
       id="path-effect3484-6"
       effect="spiro" />
    <inkscape:perspective
       sodipodi:type="inkscape:persp3d"
       inkscape:vp_x="0 : 0.5 : 1"
       inkscape:vp_y="0 : 1000 : 0"
       inkscape:vp_z="1 : 0.5 : 1"
       inkscape:persp3d-origin="0.5 : 0.33333333 : 1"
       id="perspective7971" />
    <inkscape:perspective
       sodipodi:type="inkscape:persp3d"
       inkscape:vp_x="0 : 0.5 : 1"
       inkscape:vp_y="0 : 1000 : 0"
       inkscape:vp_z="1 : 0.5 : 1"
       inkscape:persp3d-origin="0.5 : 0.33333333 : 1"
       id="perspective8013" />
    <inkscape:perspective
       sodipodi:type="inkscape:persp3d"
       inkscape:vp_x="0 : 0.5 : 1"
       inkscape:vp_y="0 : 1000 : 0"
       inkscape:vp_z="1 : 0.5 : 1"
       inkscape:persp3d-origin="0.5 : 0.33333333 : 1"
       id="perspective8049" />
    <inkscape:perspective
       sodipodi:type="inkscape:persp3d"
       inkscape:vp_x="0 : 0.5 : 1"
       inkscape:vp_y="0 : 1000 : 0"
       inkscape:vp_z="1 : 0.5 : 1"
       inkscape:persp3d-origin="0.5 : 0.33333333 : 1"
       id="perspective8112" />
    <inkscape:path-effect
       is_visible="true"
       id="path-effect8078-3"
       effect="spiro" />
    <inkscape:path-effect
       is_visible="true"
       id="path-effect8082-5"
       effect="spiro" />
    <inkscape:perspective
       sodipodi:type="inkscape:persp3d"
       inkscape:vp_x="0 : 0.5 : 1"
       inkscape:vp_y="0 : 1000 : 0"
       inkscape:vp_z="1 : 0.5 : 1"
       inkscape:persp3d-origin="0.5 : 0.33333333 : 1"
       id="perspective8194" />
    <inkscape:perspective
       sodipodi:type="inkscape:persp3d"
       inkscape:vp_x="0 : 0.5 : 1"
       inkscape:vp_y="0 : 1000 : 0"
       inkscape:vp_z="1 : 0.5 : 1"
       inkscape:persp3d-origin="0.5 : 0.33333333 : 1"
       id="perspective8242" />
    <inkscape:perspective
       sodipodi:type="inkscape:persp3d"
       inkscape:vp_x="0 : 0.5 : 1"
       inkscape:vp_y="0 : 1000 : 0"
       inkscape:vp_z="1 : 0.5 : 1"
       inkscape:persp3d-origin="0.5 : 0.33333333 : 1"
       id="perspective8531" />
    <inkscape:perspective
       sodipodi:type="inkscape:persp3d"
       inkscape:vp_x="0 : 0.5 : 1"
       inkscape:vp_y="0 : 1000 : 0"
       inkscape:vp_z="1 : 0.5 : 1"
       inkscape:persp3d-origin="0.5 : 0.33333333 : 1"
       id="perspective8545" />
    <inkscape:perspective
       sodipodi:type="inkscape:persp3d"
       inkscape:vp_x="0 : 0.5 : 1"
       inkscape:vp_y="0 : 1000 : 0"
       inkscape:vp_z="1 : 0.5 : 1"
       inkscape:persp3d-origin="0.5 : 0.33333333 : 1"
       id="perspective8559" />
    <inkscape:perspective
       sodipodi:type="inkscape:persp3d"
       inkscape:vp_x="0 : 0.5 : 1"
       inkscape:vp_y="0 : 1000 : 0"
       inkscape:vp_z="1 : 0.5 : 1"
       inkscape:persp3d-origin="0.5 : 0.33333333 : 1"
       id="perspective8573" />
    <inkscape:perspective
       sodipodi:type="inkscape:persp3d"
       inkscape:vp_x="0 : 0.5 : 1"
       inkscape:vp_y="0 : 1000 : 0"
       inkscape:vp_z="1 : 0.5 : 1"
       inkscape:persp3d-origin="0.5 : 0.33333333 : 1"
       id="perspective3547" />
    <inkscape:perspective
       sodipodi:type="inkscape:persp3d"
       inkscape:vp_x="0 : 0.5 : 1"
       inkscape:vp_y="0 : 1000 : 0"
       inkscape:vp_z="1 : 0.5 : 1"
       inkscape:persp3d-origin="0.5 : 0.33333333 : 1"
       id="perspective4633" />
    <marker
       style="overflow:visible"
       id="marker3943W"
       refX="0"
       refY="0"
       orient="auto"
       inkscape:stockid="marker3943W">
      <path
         transform="scale(-0.6,-0.6)"
         d="M 8.7185878,4.0337352 -2.2072895,0.01601326 8.7185884,-4.0017078 c -1.7454984,2.3720609 -1.7354408,5.6174519 -6e-7,8.035443 z"
         style="font-size:12px;fill:#ff0000;fill-rule:evenodd;stroke:#ff0000;stroke-width:0.625;stroke-linejoin:round"
         id="path5159" />
    </marker>
    <inkscape:perspective
       id="perspective6448"
       inkscape:persp3d-origin="0.5 : 0.33333333 : 1"
       inkscape:vp_z="1 : 0.5 : 1"
       inkscape:vp_y="0 : 1000 : 0"
       inkscape:vp_x="0 : 0.5 : 1"
       sodipodi:type="inkscape:persp3d" />
    <marker
       style="overflow:visible"
       id="marker3943W-1"
       refX="0"
       refY="0"
       orient="auto"
       inkscape:stockid="marker3943W">
      <path
         transform="scale(-0.6,-0.6)"
         d="M 8.7185878,4.0337352 -2.2072895,0.01601326 8.7185884,-4.0017078 c -1.7454984,2.3720609 -1.7354408,5.6174519 -6e-7,8.035443 z"
         style="font-size:12px;fill:#ff0000;fill-rule:evenodd;stroke:#ff0000;stroke-width:0.625;stroke-linejoin:round"
         id="path5159-7" />
    </marker>
  </defs>
  <metadata
     id="metadata4">
    <rdf:RDF>
      <cc:Work
         rdf:about="">
        <dc:format>image/svg+xml</dc:format>
        <dc:type
           rdf:resource="http://purl.org/dc/dcmitype/StillImage" />
        <dc:title></dc:title>
      </cc:Work>
    </rdf:RDF>
  </metadata>
  <g
     transform="translate(53.851185,-529.22435)"
     inkscape:label="Layer 1"
     inkscape:groupmode="layer"
     id="layer1">
    <text
       xml:space="preserve"
       style="font-size:8px;font-style:normal;font-weight:normal;fill:#000000;fill-opacity:1;stroke:none;font-family:Bitstream Vera Sans"
       x="67.959961"
       y="56.541172"
       id="text40300"><tspan
         sodipodi:role="line"
         id="tspan40302"
         x="67.959961"
         y="56.541172" /></text>
    <text
       xml:space="preserve"
       style="font-size:8px;font-style:normal;font-weight:normal;fill:#000000;fill-opacity:1;stroke:none;font-family:Bitstream Vera Sans"
       x="12.401575"
       y="62.033875"
       id="text40304"><tspan
         sodipodi:role="line"
         id="tspan40306"
         x="12.401575"
         y="62.033875" /></text>
    <path
       sodipodi:type="arc"
       style="fill:none;stroke:#000000;stroke-width:1;stroke-linecap:round;stroke-linejoin:round;stroke-miterlimit:4;stroke-opacity:1;stroke-dasharray:none"
       id="path49969"
       sodipodi:cx="204.62599"
       sodipodi:cy="299.40942"
       sodipodi:rx="0.88582677"
       sodipodi:ry="0"
       sodipodi:start="4.712389"
       sodipodi:end="7.8313482"
       transform="translate(0.0903386,-2.9844355e-6)" />
    <path
       sodipodi:type="arc"
       style="fill:none;stroke:#000000;stroke-width:1;stroke-linecap:round;stroke-linejoin:round;stroke-miterlimit:4;stroke-opacity:1;stroke-dasharray:none"
       id="path49973"
       sodipodi:cx="212.59842"
       sodipodi:cy="288.77951"
       sodipodi:rx="0"
       sodipodi:ry="1.7716535"
       sodipodi:start="4.712389"
       sodipodi:end="7.8313482"
       transform="translate(0.0903386,-2.9844355e-6)" />
    <path
       sodipodi:type="arc"
       style="fill:none;stroke:#000000;stroke-width:1;stroke-linecap:round;stroke-linejoin:round;stroke-miterlimit:4;stroke-opacity:1;stroke-dasharray:none"
       id="path49975"
       sodipodi:cx="214.37007"
       sodipodi:cy="290.55115"
       sodipodi:rx="0"
       sodipodi:ry="0"
       sodipodi:start="4.712389"
       sodipodi:end="7.8313482"
       transform="translate(0.0903386,-2.9844355e-6)" />
    <path
       sodipodi:type="arc"
       style="fill:none;stroke:#000000;stroke-width:1;stroke-linecap:round;stroke-linejoin:round;stroke-miterlimit:4;stroke-opacity:1;stroke-dasharray:none"
       id="path49977"
       sodipodi:cx="214.37007"
       sodipodi:cy="287.00784"
       sodipodi:rx="0"
       sodipodi:ry="0"
       sodipodi:start="4.712389"
       sodipodi:end="7.8313482"
       transform="translate(0.0903386,-2.9844355e-6)" />
    <path
       d=""
       style="fill:none;stroke:#000000;stroke-width:1;stroke-linecap:round;stroke-linejoin:miter;stroke-miterlimit:4;stroke-opacity:1;stroke-dasharray:none"
       id="path2623"
       sodipodi:nodetypes="cc" />
    <text
       xml:space="preserve"
       style="font-size:8px;font-style:normal;font-weight:normal;fill:#000000;fill-opacity:1;stroke:none;font-family:Bitstream Vera Sans"
       x="67.959969"
       y="56.541176"
       id="text3652"><tspan
         sodipodi:role="line"
         id="tspan3654"
         x="67.959969"
         y="56.541176" /></text>
    <text
       xml:space="preserve"
       style="font-size:8px;font-style:normal;font-weight:normal;fill:#000000;fill-opacity:1;stroke:none;font-family:Bitstream Vera Sans"
       x="12.401583"
       y="62.033878"
       id="text3656"><tspan
         sodipodi:role="line"
         id="tspan3658"
         x="12.401583"
         y="62.033878" /></text>
    <path
       sodipodi:type="arc"
       style="fill:none;stroke:#000000;stroke-width:1;stroke-linecap:round;stroke-linejoin:round;stroke-miterlimit:4;stroke-opacity:1;stroke-dasharray:none"
       id="path3660"
       sodipodi:cx="204.62599"
       sodipodi:cy="299.40942"
       sodipodi:rx="0.88582677"
       sodipodi:ry="0"
       sodipodi:start="4.712389"
       sodipodi:end="7.8313482"
       transform="translate(0.0903459,-1.0088479e-7)" />
    <path
       sodipodi:type="arc"
       style="fill:none;stroke:#000000;stroke-width:1;stroke-linecap:round;stroke-linejoin:round;stroke-miterlimit:4;stroke-opacity:1;stroke-dasharray:none"
       id="path3662"
       sodipodi:cx="212.59842"
       sodipodi:cy="288.77951"
       sodipodi:rx="0"
       sodipodi:ry="1.7716535"
       sodipodi:start="4.712389"
       sodipodi:end="7.8313482"
       transform="translate(0.0903459,-1.0088479e-7)" />
    <path
       sodipodi:type="arc"
       style="fill:none;stroke:#000000;stroke-width:1;stroke-linecap:round;stroke-linejoin:round;stroke-miterlimit:4;stroke-opacity:1;stroke-dasharray:none"
       id="path3664"
       sodipodi:cx="214.37007"
       sodipodi:cy="290.55115"
       sodipodi:rx="0"
       sodipodi:ry="0"
       sodipodi:start="4.712389"
       sodipodi:end="7.8313482"
       transform="translate(0.0903459,-1.0088479e-7)" />
    <path
       sodipodi:type="arc"
       style="fill:none;stroke:#000000;stroke-width:1;stroke-linecap:round;stroke-linejoin:round;stroke-miterlimit:4;stroke-opacity:1;stroke-dasharray:none"
       id="path3666"
       sodipodi:cx="214.37007"
       sodipodi:cy="287.00784"
       sodipodi:rx="0"
       sodipodi:ry="0"
       sodipodi:start="4.712389"
       sodipodi:end="7.8313482"
       transform="translate(0.0903459,-1.0088479e-7)" />
    <rect
       style="opacity:0.5;fill:#ffffff;fill-opacity:1;fill-rule:nonzero;stroke:#000000;stroke-width:1;stroke-linecap:round;stroke-linejoin:round;stroke-miterlimit:4;stroke-opacity:1;stroke-dasharray:none;stroke-dashoffset:0"
       id="rect6425"
       width="0"
       height="0"
       x="113.47617"
       y="193.11021" />
    <g
       transform="matrix(3,0,0,3,-718.54298,-1442.4276)"
       id="g8265">
      <g
         id="g3466"
         transform="matrix(1,0,0,-1,222.32124,1459.7085)">
        <path
           style="fill:none;stroke:#000000;stroke-width:1;stroke-linecap:butt;stroke-linejoin:round;stroke-miterlimit:4;stroke-opacity:1;stroke-dasharray:none"
           d="m 115.10695,768.76342 0,-35.4651 31.95581,17.73256 -31.95581,17.73254"
           id="path50499-0" />
        <path
           style="fill:none;stroke:#000000;stroke-width:1;stroke-linecap:butt;stroke-linejoin:miter;stroke-miterlimit:4;stroke-opacity:1;stroke-dasharray:none"
           d="m 115.24782,758.12371 -8.85825,0"
           id="path50501-9" />
        <path
           style="fill:none;stroke:#000000;stroke-width:1;stroke-linecap:butt;stroke-linejoin:miter;stroke-miterlimit:4;stroke-opacity:1;stroke-dasharray:none"
           d="m 115.24783,743.95049 -8.85826,0"
           id="path50503-4" />
        <path
           style="fill:none;stroke:#000000;stroke-width:1;stroke-linecap:square;stroke-linejoin:miter;stroke-miterlimit:4;stroke-opacity:1;stroke-dasharray:none"
           d="m 147.13758,751.0371 8.85827,0"
           id="path50505-8" />
      </g>
      <g
         id="g3475"
         transform="translate(208.14801,-42.365704)">
        <path
           style="fill:none;stroke:#000000;stroke-width:1;stroke-linecap:butt;stroke-linejoin:round;stroke-miterlimit:4;stroke-opacity:1;stroke-dasharray:none"
           d="m 185.97309,768.76342 0,-35.4651 31.95581,17.73256 -31.95581,17.73254"
           id="path50499-5" />
        <path
           style="fill:none;stroke:#000000;stroke-width:1;stroke-linecap:butt;stroke-linejoin:miter;stroke-miterlimit:4;stroke-opacity:1;stroke-dasharray:none"
           d="m 186.11394,751.0371 -8.85825,0"
           id="path50501-1" />
        <path
           style="fill:none;stroke:#000000;stroke-width:1;stroke-linecap:square;stroke-linejoin:miter;stroke-miterlimit:4;stroke-opacity:1;stroke-dasharray:none"
           d="m 218.00372,751.0371 8.85827,0"
           id="path50505-1" />
      </g>
      <path
         style="fill:none;stroke:#000000;stroke-width:1px;stroke-linecap:butt;stroke-linejoin:miter;stroke-opacity:1"
         d="m 378.44748,708.6694 6.95622,0.002"
         id="path3482"
         inkscape:path-effect="#path-effect3484"
         inkscape:original-d="m 378.44748,708.6694 6.95622,0.002" />
      <path
         sodipodi:nodetypes="cccccccccc"
         id="path45546-1"
         d="m 392.49031,664.38006 -3.5433,0 -1.77165,-3.54331 -3.54331,7.08662 -3.54331,-7.08662 -3.54331,7.08662 -3.5433,-7.08662 -3.54331,7.08662 -1.77165,-3.54331 -3.54332,0"
         style="fill:none;stroke:#000000;stroke-width:1;stroke-linecap:butt;stroke-linejoin:round;stroke-miterlimit:4;stroke-opacity:1;stroke-dasharray:none" />
      <path
         sodipodi:nodetypes="cccccccccc"
         id="path45546-1-5"
         d="m 312.76591,701.58479 -3.5433,0 -1.77165,-3.54331 -3.54331,7.08662 -3.54331,-7.08662 -3.54331,7.08662 -3.5433,-7.08662 -3.54331,7.08662 -1.77165,-3.54331 -3.54332,0"
         style="fill:none;stroke:#000000;stroke-width:1;stroke-linecap:butt;stroke-linejoin:round;stroke-miterlimit:4;stroke-opacity:1;stroke-dasharray:none" />
      <path
         style="fill:none;stroke:#000000;stroke-width:1px;stroke-linecap:butt;stroke-linejoin:miter;stroke-opacity:1"
         d="m 312.76591,701.58479 15.94487,0"
         id="path3530"
         inkscape:path-effect="#path-effect3532"
         inkscape:original-d="m 312.76591,701.58479 15.94487,0" />
      <path
         style="fill:none;stroke:#000000;stroke-width:1px;stroke-linecap:butt;stroke-linejoin:miter;stroke-opacity:1"
         d="m 360.60055,664.38006 -35.43307,0 0,37.20473"
         id="path3534"
         inkscape:path-effect="#path-effect3536"
         inkscape:original-d="m 360.60055,664.38006 -35.43307,0 0,37.20473" />
      <path
         style="fill:none;stroke:#000000;stroke-width:1px;stroke-linecap:butt;stroke-linejoin:miter;stroke-opacity:1"
         d="m 452.72653,708.6714 0.0481,-43.95781 -60.28432,-0.33353"
         id="path3538"
         inkscape:path-effect="#path-effect3540"
         inkscape:original-d="m 452.72653,708.6714 c 0.0481,0.33353 0.0481,-43.95781 0.0481,-43.95781 l -60.28432,-0.33353"
         sodipodi:nodetypes="ccc" />
      <g
         transform="matrix(1,0,0,-1,390.71866,760.04933)"
         id="g6809-2">
        <g
           id="g3285-7">
          <g
             id="g3586-6">
            <path
               style="fill:none;stroke:#000000;stroke-width:1;stroke-linecap:butt;stroke-linejoin:miter;stroke-miterlimit:4;stroke-opacity:1;stroke-dasharray:none"
               d="m 62.00786,33.63242 0,7.35827"
               id="path45526-1" />
            <path
               style="fill:none;stroke:#000000;stroke-width:1;stroke-linecap:butt;stroke-linejoin:miter;stroke-miterlimit:4;stroke-opacity:1;stroke-dasharray:none"
               d="m 62.00786,44.29111 0,7.0866"
               id="path45528-4" />
            <path
               style="fill:none;stroke:#000000;stroke-width:1;stroke-linecap:round;stroke-linejoin:miter;stroke-miterlimit:4;stroke-opacity:1;stroke-dasharray:none"
               d="m 67.32282,40.74779 -10.62993,0"
               id="path45530-2" />
            <path
               style="fill:none;stroke:#000000;stroke-width:1;stroke-linecap:round;stroke-linejoin:miter;stroke-miterlimit:4;stroke-opacity:1;stroke-dasharray:none"
               d="m 67.32283,44.29109 -10.62993,0"
               id="path45532-3" />
          </g>
          <path
             id="path49999-2"
             d="m 62.007874,51.377931 0,-3.54331"
             style="fill:none;stroke:#000000;stroke-width:1;stroke-linecap:butt;stroke-linejoin:miter;stroke-miterlimit:4;stroke-opacity:1;stroke-dasharray:none" />
        </g>
      </g>
      <g
         transform="translate(355.28559,622.2354)"
         id="g3602-2">
        <path
           style="fill:none;stroke:#000000;stroke-width:1;stroke-linecap:round;stroke-linejoin:miter;stroke-miterlimit:4;stroke-opacity:1;stroke-dasharray:none"
           d="m 92.12598,109.8425 10.62992,0"
           id="path46259-1" />
        <path
           style="fill:none;stroke:#000000;stroke-width:1;stroke-linecap:round;stroke-linejoin:miter;stroke-miterlimit:4;stroke-opacity:1;stroke-dasharray:none"
           d="m 93.89763,111.61437 7.08661,0"
           id="path46261-6" />
        <path
           style="fill:none;stroke:#000000;stroke-width:1;stroke-linecap:round;stroke-linejoin:miter;stroke-miterlimit:4;stroke-opacity:1;stroke-dasharray:none"
           d="m 95.66928,113.38581 3.54331,0"
           id="path46263-8" />
        <path
           style="fill:none;stroke:#000000;stroke-width:1;stroke-linecap:butt;stroke-linejoin:miter;stroke-miterlimit:4;stroke-opacity:1;stroke-dasharray:none"
           d="m 97.44094,109.4675 0,-5.31496"
           id="path46265-5" />
      </g>
      <g
         transform="translate(227.72654,620.46374)"
         id="g3602-6">
        <path
           style="fill:none;stroke:#000000;stroke-width:1;stroke-linecap:round;stroke-linejoin:miter;stroke-miterlimit:4;stroke-opacity:1;stroke-dasharray:none"
           d="m 92.12598,109.8425 10.62992,0"
           id="path46259-18" />
        <path
           style="fill:none;stroke:#000000;stroke-width:1;stroke-linecap:round;stroke-linejoin:miter;stroke-miterlimit:4;stroke-opacity:1;stroke-dasharray:none"
           d="m 93.89763,111.61437 7.08661,0"
           id="path46261-9" />
        <path
           style="fill:none;stroke:#000000;stroke-width:1;stroke-linecap:round;stroke-linejoin:miter;stroke-miterlimit:4;stroke-opacity:1;stroke-dasharray:none"
           d="m 95.66928,113.38581 3.54331,0"
           id="path46263-2" />
        <path
           style="fill:none;stroke:#000000;stroke-width:1;stroke-linecap:butt;stroke-linejoin:miter;stroke-miterlimit:4;stroke-opacity:1;stroke-dasharray:none"
           d="m 97.44094,109.4675 0,-5.31496"
           id="path46265-7" />
      </g>
      <path
         style="fill:none;stroke:#000000;stroke-width:1px;stroke-linecap:butt;stroke-linejoin:miter;stroke-opacity:1"
         d="m 360.60055,664.38006 3.5433,0"
         id="path3636"
         inkscape:path-effect="#path-effect3638"
         inkscape:original-d="m 360.60055,664.38006 3.5433,0" />
      <path
         style="fill:none;stroke:#000000;stroke-width:1px;stroke-linecap:butt;stroke-linejoin:miter;stroke-opacity:1"
         d="m 328.71078,715.75801 -3.5433,0 0,8.85827"
         id="path3640"
         inkscape:path-effect="#path-effect3642"
         inkscape:original-d="m 328.71078,715.75801 -3.5433,0 0,8.85827" />
      <g
         id="g3700"
         transform="translate(221.63619,-46.05299)">
        <path
           sodipodi:type="arc"
           style="fill:none;stroke:#000000;stroke-width:1;stroke-linecap:round;stroke-linejoin:round;stroke-miterlimit:4;stroke-opacity:1;stroke-dasharray:none"
           id="path7917-1"
           sodipodi:cx="168.30708"
           sodipodi:cy="237.40155"
           sodipodi:rx="8.8582678"
           sodipodi:ry="8.8582678"
           d="m 177.16535,237.40155 c 0,4.89229 -3.96598,8.85827 -8.85827,8.85827 -4.89228,0 -8.85826,-3.96598 -8.85826,-8.85827 0,-4.89229 3.96598,-8.85827 8.85826,-8.85827 4.89229,0 8.85827,3.96598 8.85827,8.85827 z"
           transform="translate(-123.24036,524.40945)" />
        <path
           style="fill:none;stroke:#000000;stroke-width:1;stroke-linecap:butt;stroke-linejoin:miter;stroke-miterlimit:4;stroke-opacity:1;stroke-dasharray:none"
           d="m 39.751761,765.35431 10.62992,0"
           id="path7919-2" />
        <path
           style="fill:none;stroke:#000000;stroke-width:1;stroke-linecap:butt;stroke-linejoin:miter;stroke-miterlimit:4;stroke-opacity:1;stroke-dasharray:none;marker-end:url(#Arrow2Send)"
           d="m 41.523421,765.35431 0,-7.08662"
           id="path7921-3"
           sodipodi:nodetypes="cc" />
        <path
           style="fill:none;stroke:#000000;stroke-width:1;stroke-linecap:butt;stroke-linejoin:miter;stroke-miterlimit:4;stroke-opacity:1;stroke-dasharray:none;marker-end:url(#Arrow2Send)"
           d="m 45.066721,765.35431 0,-7.08662"
           id="path7923-3"
           sodipodi:nodetypes="cc" />
        <path
           style="fill:none;stroke:#000000;stroke-width:1;stroke-linecap:butt;stroke-linejoin:miter;stroke-miterlimit:4;stroke-opacity:1;stroke-dasharray:none;marker-end:url(#Arrow2Send)"
           d="m 48.610031,765.35431 0,-7.08662"
           id="path7925-4"
           sodipodi:nodetypes="cc" />
      </g>
      <g
         transform="translate(169.26197,620.46374)"
         id="g3602-6-1">
        <path
           style="fill:none;stroke:#000000;stroke-width:1;stroke-linecap:round;stroke-linejoin:miter;stroke-miterlimit:4;stroke-opacity:1;stroke-dasharray:none"
           d="m 92.12598,109.8425 10.62992,0"
           id="path46259-18-1" />
        <path
           style="fill:none;stroke:#000000;stroke-width:1;stroke-linecap:round;stroke-linejoin:miter;stroke-miterlimit:4;stroke-opacity:1;stroke-dasharray:none"
           d="m 93.89763,111.61437 7.08661,0"
           id="path46261-9-3" />
        <path
           style="fill:none;stroke:#000000;stroke-width:1;stroke-linecap:round;stroke-linejoin:miter;stroke-miterlimit:4;stroke-opacity:1;stroke-dasharray:none"
           d="m 95.66928,113.38581 3.54331,0"
           id="path46263-2-8" />
        <path
           style="fill:none;stroke:#000000;stroke-width:1;stroke-linecap:butt;stroke-linejoin:miter;stroke-miterlimit:4;stroke-opacity:1;stroke-dasharray:none"
           d="m 97.44094,109.4675 0,-5.31496"
           id="path46265-7-7" />
      </g>
      <path
         style="fill:none;stroke:#000000;stroke-width:1px;stroke-linecap:butt;stroke-linejoin:miter;stroke-opacity:1"
         d="m 284.41945,701.58479 -17.71654,0 0,5.31496"
         id="path3741"
         inkscape:path-effect="#path-effect3743"
         inkscape:original-d="m 284.41945,701.58479 -17.71654,0 0,5.31496" />
      <g
         transform="translate(204.21826,9.2481997)"
         id="g5130">
        <path
           d="m 135.54402,674.2267 -1.28,-0.31 c -0.61,-0.15 -1,-0.68 -1,-1.26 0,-0.7 0.54,-1.31 1.31,-1.31 1.67,0 1.89,1.64 1.95,2.09 0.01,0.06 0.01,0.12 0.12,0.12 0.12,0 0.12,-0.06 0.12,-0.25 l 0,-2 c 0,-0.17 0,-0.24 -0.11,-0.24 -0.06,0 -0.07,0.01 -0.14,0.13 l -0.35,0.57 c -0.3,-0.29 -0.71,-0.7 -1.6,-0.7 -1.1,0 -1.94,0.88 -1.94,1.94 0,0.82 0.53,1.55 1.31,1.82 0.1,0.04 0.61,0.16 1.31,0.33 0.27,0.07 0.57,0.14 0.85,0.51 0.21,0.26 0.31,0.58 0.31,0.91 0,0.71 -0.5,1.43 -1.34,1.43 -0.29,0 -1.05,-0.05 -1.57,-0.54 -0.58,-0.54 -0.61,-1.18 -0.62,-1.53 -0.01,-0.1 -0.09,-0.1 -0.12,-0.1 -0.13,0 -0.13,0.07 -0.13,0.24 l 0,2 c 0,0.17 0,0.24 0.11,0.24 0.07,0 0.08,-0.02 0.15,-0.13 0,-0.01 0.03,-0.04 0.36,-0.57 0.31,0.34 0.94,0.7 1.83,0.7 1.17,0 1.96,-0.98 1.96,-2.08 0,-0.99 -0.65,-1.81 -1.49,-2.01 z"
           style="font-style:normal;font-variant:normal;font-weight:normal;font-stretch:normal;letter-spacing:normal;word-spacing:normal;text-anchor:start;fill:#000000;stroke:#000000;stroke-width:0;stroke-linecap:butt;stroke-linejoin:miter;stroke-miterlimit:10.43299961;stroke-opacity:1;stroke-dasharray:none;stroke-dashoffset:0"
           id="path4415" />
        <path
           d="m 139.32402,674.1067 1.43,0 0,-0.31 -1.43,0 0,-1.83 -0.25,0 c -0.01,0.82 -0.31,1.88 -1.28,1.92 l 0,0.22 0.84,0 0,2.75 c 0,1.23 0.93,1.35 1.29,1.35 0.71,0 0.98,-0.71 0.98,-1.35 l 0,-0.57 -0.24,0 0,0.55 c 0,0.74 -0.3,1.12 -0.67,1.12 -0.67,0 -0.67,-0.91 -0.67,-1.08 z"
           style="font-style:normal;font-variant:normal;font-weight:normal;font-stretch:normal;letter-spacing:normal;word-spacing:normal;text-anchor:start;fill:#000000;stroke:#000000;stroke-width:0;stroke-linecap:butt;stroke-linejoin:miter;stroke-miterlimit:10.43299961;stroke-opacity:1;stroke-dasharray:none;stroke-dashoffset:0"
           id="path4417" />
        <path
           d="m 144.79402,677.3367 0.01,0.04 0,0.03 0.01,0.04 0.01,0.04 0.01,0.04 0.01,0.03 0.01,0.04 0.01,0.04 0.02,0.03 0.02,0.04 0.01,0.03 0.02,0.03 0.02,0.04 0.02,0.03 0.03,0.03 0.02,0.03 0.03,0.03 0.02,0.02 0.03,0.03 0.03,0.02 0.03,0.03 0.03,0.02 0.03,0.02 0.04,0.02 0.03,0.01 0.04,0.02 0.03,0.01 0.04,0.01 0.04,0.01 0.04,0 0.05,0.01 0.04,0 c 0.21,0 0.82,-0.14 0.82,-0.95 l 0,-0.56 -0.25,0 0,0.56 c 0,0.58 -0.25,0.64 -0.36,0.64 -0.33,0 -0.37,-0.45 -0.37,-0.5 l 0,-1.99 c 0,-0.42 0,-0.81 -0.36,-1.18 -0.39,-0.39 -0.88,-0.55 -1.36,-0.55 -0.82,0 -1.51,0.47 -1.51,1.13 0,0.3 0.2,0.47 0.46,0.47 0.28,0 0.46,-0.2 0.46,-0.46 0,-0.12 -0.05,-0.45 -0.51,-0.46 0.27,-0.35 0.76,-0.46 1.08,-0.46 0.48,0 1.05,0.39 1.05,1.28 l 0,0.37 0,0.21 0,0.99 c 0,0.95 -0.71,1.29 -1.16,1.29 -0.49,0 -0.9,-0.35 -0.9,-0.85 0,-0.55 0.42,-1.37 2.06,-1.43 l 0,0 0,-0.21 c -0.5,0.03 -1.2,0.06 -1.83,0.36 -0.75,0.33 -1,0.85 -1,1.29 0,0.81 0.97,1.06 1.6,1.06 0.65,0 1.11,-0.4 1.3,-0.87 z"
           style="font-style:normal;font-variant:normal;font-weight:normal;font-stretch:normal;letter-spacing:normal;word-spacing:normal;text-anchor:start;fill:#000000;stroke:#000000;stroke-width:0;stroke-linecap:butt;stroke-linejoin:miter;stroke-miterlimit:10.43299961;stroke-opacity:1;stroke-dasharray:none;stroke-dashoffset:0"
           id="path4419" />
        <path
           d="m 147.51402,676.7667 0,0 0,-0.01 0,0 0,-0.01 0,-0.01 0,-0.01 0,-0.01 0,-0.01 0,-0.01 0.01,-0.01 0,-0.02 0,-0.01 0,-0.02 0.01,-0.01 0,-0.02 0,-0.01 0.01,-0.02 0,-0.02 0.01,-0.01 0,-0.02 0.01,-0.02 0.01,-0.02 0,-0.02 0.01,-0.01 0.01,-0.02 0.01,-0.02 0.01,-0.02 0.01,-0.02 0.02,-0.02 0.01,-0.02 0.01,-0.02 0.02,-0.02 c 0.39,0.28 0.8,0.31 0.99,0.31 l 0,-0.23 c -0.87,0 -0.87,-0.99 -0.87,-1.22 0,-0.27 0.01,-0.59 0.16,-0.84 0.08,-0.12 0.31,-0.4 0.71,-0.4 0.86,0 0.86,1 0.86,1.23 0,0.27 -0.01,0.59 -0.16,0.84 -0.08,0.12 -0.31,0.39 -0.7,0.39 l 0,0 0,0.23 c 0.92,0 1.61,-0.68 1.61,-1.45 0,-0.37 -0.16,-0.74 -0.41,-0.97 0.36,-0.34 0.72,-0.39 0.9,-0.39 0.02,0 0.07,0 0.1,0.01 -0.11,0.04 -0.16,0.15 -0.16,0.27 0,0.17 0.13,0.29 0.29,0.29 0.1,0 0.29,-0.07 0.29,-0.3 0,-0.17 -0.12,-0.49 -0.51,-0.49 -0.2,0 -0.64,0.06 -1.06,0.47 -0.42,-0.33 -0.83,-0.36 -1.05,-0.36 -0.93,0 -1.62,0.69 -1.62,1.46 0,0.44 0.22,0.81 0.47,1.03 -0.13,0.14 -0.31,0.47 -0.31,0.82 0,0.31 0.13,0.69 0.44,0.89 -0.6,0.17 -0.92,0.6 -0.92,0.99 0,0.72 0.99,1.27 2.21,1.27 l 0.01,-0.23 c -1.01,0 -1.7,-0.51 -1.7,-1.04 0,-0.45 0.38,-0.82 0.82,-0.85 l 0.59,0 c 0.85,0 1.97,0 1.97,0.85 0,0.54 -0.71,1.04 -1.68,1.04 l 0,0 -0.01,0.23 c 1.17,0 2.21,-0.51 2.21,-1.28 0,-0.35 -0.14,-0.86 -0.65,-1.14 -0.53,-0.28 -1.11,-0.28 -1.71,-0.28 -0.25,0 -0.68,0 -0.75,-0.01 -0.32,-0.04 -0.53,-0.35 -0.53,-0.67 z"
           style="font-style:normal;font-variant:normal;font-weight:normal;font-stretch:normal;letter-spacing:normal;word-spacing:normal;text-anchor:start;fill:#000000;stroke:#000000;stroke-width:0;stroke-linecap:butt;stroke-linejoin:miter;stroke-miterlimit:10.43299961;stroke-opacity:1;stroke-dasharray:none;stroke-dashoffset:0"
           id="path4421" />
        <path
           d="m 152.54402,675.7967 0.01,-0.21 c 0.06,-1.49 0.9,-1.74 1.24,-1.74 1.02,0 1.12,1.35 1.12,1.74 l -2.36,0 -0.01,0.21 2.78,0 c 0.22,0 0.25,0 0.25,-0.21 0,-0.99 -0.54,-1.96 -1.78,-1.96 -1.16,0 -2.08,1.03 -2.08,2.28 0,1.33 1.05,2.3 2.2,2.3 1.21,0 1.66,-1.11 1.66,-1.3 0,-0.1 -0.08,-0.12 -0.13,-0.12 -0.09,0 -0.11,0.06 -0.13,0.14 -0.35,1.03 -1.25,1.03 -1.34,1.03 -0.5,0 -0.9,-0.3 -1.13,-0.67 -0.3,-0.48 -0.3,-1.14 -0.3,-1.49 z"
           style="font-style:normal;font-variant:normal;font-weight:normal;font-stretch:normal;letter-spacing:normal;word-spacing:normal;text-anchor:start;fill:#000000;stroke:#000000;stroke-width:0;stroke-linecap:butt;stroke-linejoin:miter;stroke-miterlimit:10.43299961;stroke-opacity:1;stroke-dasharray:none;stroke-dashoffset:0"
           id="path4423" />
        <path
           d="m 162.11402,671.7167 0,-0.01 0,-0.01 0,-0.01 0,-0.01 0,-0.01 0,-0.01 0,-0.01 0,-0.01 0,-0.01 0,-0.01 0,0 0,-0.01 0,-0.01 0,-0.01 0,0 0,-0.01 0,-0.01 0,0 -0.01,-0.01 0,-0.02 0,-0.01 0,-0.01 -0.01,0 0,-0.01 -0.01,-0.01 0,0 -0.01,-0.01 -0.01,0 0,-0.01 -0.01,0 -0.01,0 0,-0.01 -0.01,0 0,0 -0.01,0 -0.01,0 0,0 -0.01,0 0,0 -0.01,0 -0.01,-0.01 -0.01,0 0,0 -0.01,0 -0.01,0 -0.01,0 -0.01,0 -0.01,0 -0.01,0 -0.01,0 -0.01,0 -0.01,0 c -0.62,0.64 -1.49,0.64 -1.81,0.64 l 0,0.31 c 0.2,0 0.79,0 1.3,-0.26 l 0,5.16 c 0,0.36 -0.03,0.48 -0.92,0.48 l -0.32,0 0,0.31 c 0.35,-0.03 1.21,-0.03 1.61,-0.03 0.4,0 1.27,0 1.62,0.03 l 0,-0.31 -0.32,0 c -0.9,0 -0.93,-0.11 -0.93,-0.48 z"
           style="font-style:normal;font-variant:normal;font-weight:normal;font-stretch:normal;letter-spacing:normal;word-spacing:normal;text-anchor:start;fill:#000000;stroke:#000000;stroke-width:0;stroke-linecap:butt;stroke-linejoin:miter;stroke-miterlimit:10.43299961;stroke-opacity:1;stroke-dasharray:none;stroke-dashoffset:0"
           id="path4425" />
      </g>
      <g
         transform="translate(226.11283,9.2481997)"
         id="g5138">
        <path
           d="m 170.96402,674.2267 -1.27,-0.31 c -0.62,-0.15 -1.01,-0.68 -1.01,-1.26 0,-0.7 0.54,-1.31 1.32,-1.31 1.66,0 1.88,1.64 1.94,2.09 0.01,0.06 0.01,0.12 0.12,0.12 0.13,0 0.13,-0.06 0.13,-0.25 l 0,-2 c 0,-0.17 0,-0.24 -0.11,-0.24 -0.07,0 -0.08,0.01 -0.15,0.13 l -0.35,0.57 c -0.3,-0.29 -0.71,-0.7 -1.59,-0.7 -1.11,0 -1.95,0.88 -1.95,1.94 0,0.82 0.53,1.55 1.31,1.82 0.11,0.04 0.62,0.16 1.31,0.33 0.27,0.07 0.57,0.14 0.85,0.51 0.21,0.26 0.31,0.58 0.31,0.91 0,0.71 -0.5,1.43 -1.34,1.43 -0.28,0 -1.04,-0.05 -1.57,-0.54 -0.58,-0.54 -0.61,-1.18 -0.62,-1.53 -0.01,-0.1 -0.09,-0.1 -0.12,-0.1 -0.13,0 -0.13,0.07 -0.13,0.24 l 0,2 c 0,0.17 0,0.24 0.11,0.24 0.07,0 0.08,-0.02 0.15,-0.13 0,-0.01 0.03,-0.04 0.36,-0.57 0.31,0.34 0.95,0.7 1.83,0.7 1.17,0 1.97,-0.98 1.97,-2.08 0,-0.99 -0.66,-1.81 -1.5,-2.01 z"
           style="font-style:normal;font-variant:normal;font-weight:normal;font-stretch:normal;letter-spacing:normal;word-spacing:normal;text-anchor:start;fill:#000000;stroke:#000000;stroke-width:0;stroke-linecap:butt;stroke-linejoin:miter;stroke-miterlimit:10.43299961;stroke-opacity:1;stroke-dasharray:none;stroke-dashoffset:0"
           id="path4427" />
        <path
           d="m 174.74402,674.1067 1.43,0 0,-0.31 -1.43,0 0,-1.83 -0.25,0 c -0.01,0.82 -0.3,1.88 -1.28,1.92 l 0,0.22 0.85,0 0,2.75 c 0,1.23 0.92,1.35 1.28,1.35 0.71,0 0.99,-0.71 0.99,-1.35 l 0,-0.57 -0.25,0 0,0.55 c 0,0.74 -0.3,1.12 -0.67,1.12 -0.67,0 -0.67,-0.91 -0.67,-1.08 z"
           style="font-style:normal;font-variant:normal;font-weight:normal;font-stretch:normal;letter-spacing:normal;word-spacing:normal;text-anchor:start;fill:#000000;stroke:#000000;stroke-width:0;stroke-linecap:butt;stroke-linejoin:miter;stroke-miterlimit:10.43299961;stroke-opacity:1;stroke-dasharray:none;stroke-dashoffset:0"
           id="path4429" />
        <path
           d="m 180.21402,677.3367 0.01,0.04 0.01,0.03 0,0.04 0.01,0.04 0.01,0.04 0.01,0.03 0.01,0.04 0.02,0.04 0.01,0.03 0.02,0.04 0.02,0.03 0.02,0.03 0.02,0.04 0.02,0.03 0.02,0.03 0.02,0.03 0.03,0.03 0.02,0.02 0.03,0.03 0.03,0.02 0.03,0.03 0.03,0.02 0.04,0.02 0.03,0.02 0.03,0.01 0.04,0.02 0.04,0.01 0.04,0.01 0.04,0.01 0.04,0 0.04,0.01 0.04,0 c 0.21,0 0.82,-0.14 0.82,-0.95 l 0,-0.56 -0.25,0 0,0.56 c 0,0.58 -0.25,0.64 -0.36,0.64 -0.33,0 -0.37,-0.45 -0.37,-0.5 l 0,-1.99 c 0,-0.42 0,-0.81 -0.36,-1.18 -0.38,-0.39 -0.88,-0.55 -1.36,-0.55 -0.82,0 -1.5,0.47 -1.5,1.13 0,0.3 0.19,0.47 0.45,0.47 0.28,0 0.46,-0.2 0.46,-0.46 0,-0.12 -0.05,-0.45 -0.51,-0.46 0.27,-0.35 0.76,-0.46 1.08,-0.46 0.49,0 1.06,0.39 1.06,1.28 l 0,0.37 0,0.21 0,0.99 c 0,0.95 -0.72,1.29 -1.17,1.29 -0.49,0 -0.9,-0.35 -0.9,-0.85 0,-0.55 0.42,-1.37 2.07,-1.43 l 0,0 0,-0.21 c -0.51,0.03 -1.21,0.06 -1.84,0.36 -0.75,0.33 -0.99,0.85 -0.99,1.29 0,0.81 0.96,1.06 1.59,1.06 0.66,0 1.12,-0.4 1.3,-0.87 z"
           style="font-style:normal;font-variant:normal;font-weight:normal;font-stretch:normal;letter-spacing:normal;word-spacing:normal;text-anchor:start;fill:#000000;stroke:#000000;stroke-width:0;stroke-linecap:butt;stroke-linejoin:miter;stroke-miterlimit:10.43299961;stroke-opacity:1;stroke-dasharray:none;stroke-dashoffset:0"
           id="path4431" />
        <path
           d="m 182.93402,676.7667 0,0 0,-0.01 0,0 0,-0.01 0,-0.01 0.01,-0.01 0,-0.01 0,-0.01 0,-0.01 0,-0.01 0,-0.02 0,-0.01 0.01,-0.02 0,-0.01 0,-0.02 0.01,-0.01 0,-0.02 0,-0.02 0.01,-0.01 0.01,-0.02 0,-0.02 0.01,-0.02 0.01,-0.02 0.01,-0.01 0,-0.02 0.01,-0.02 0.02,-0.02 0.01,-0.02 0.01,-0.02 0.01,-0.02 0.02,-0.02 0.01,-0.02 c 0.39,0.28 0.8,0.31 0.99,0.31 l 0,-0.23 c -0.87,0 -0.87,-0.99 -0.87,-1.22 0,-0.27 0.01,-0.59 0.16,-0.84 0.08,-0.12 0.31,-0.4 0.71,-0.4 0.87,0 0.87,1 0.87,1.23 0,0.27 -0.01,0.59 -0.16,0.84 -0.08,0.12 -0.31,0.39 -0.71,0.39 l 0,0 0,0.23 c 0.93,0 1.61,-0.68 1.61,-1.45 0,-0.37 -0.16,-0.74 -0.4,-0.97 0.35,-0.34 0.71,-0.39 0.89,-0.39 0.02,0 0.07,0 0.1,0.01 -0.11,0.04 -0.16,0.15 -0.16,0.27 0,0.17 0.13,0.29 0.29,0.29 0.1,0 0.29,-0.07 0.29,-0.3 0,-0.17 -0.12,-0.49 -0.51,-0.49 -0.2,0 -0.64,0.06 -1.05,0.47 -0.42,-0.33 -0.84,-0.36 -1.06,-0.36 -0.93,0 -1.61,0.69 -1.61,1.46 0,0.44 0.21,0.81 0.46,1.03 -0.13,0.14 -0.3,0.47 -0.3,0.82 0,0.31 0.12,0.69 0.43,0.89 -0.59,0.17 -0.91,0.6 -0.91,0.99 0,0.72 0.98,1.27 2.2,1.27 l 0.01,-0.23 c -1.01,0 -1.69,-0.51 -1.69,-1.04 0,-0.45 0.37,-0.82 0.81,-0.85 l 0.59,0 c 0.86,0 1.97,0 1.97,0.85 0,0.54 -0.71,1.04 -1.68,1.04 l 0,0 -0.01,0.23 c 1.17,0 2.21,-0.51 2.21,-1.28 0,-0.35 -0.14,-0.86 -0.65,-1.14 -0.53,-0.28 -1.1,-0.28 -1.71,-0.28 -0.25,0 -0.68,0 -0.75,-0.01 -0.32,-0.04 -0.53,-0.35 -0.53,-0.67 z"
           style="font-style:normal;font-variant:normal;font-weight:normal;font-stretch:normal;letter-spacing:normal;word-spacing:normal;text-anchor:start;fill:#000000;stroke:#000000;stroke-width:0;stroke-linecap:butt;stroke-linejoin:miter;stroke-miterlimit:10.43299961;stroke-opacity:1;stroke-dasharray:none;stroke-dashoffset:0"
           id="path4433" />
        <path
           d="m 187.96402,675.7967 0.01,-0.21 c 0.06,-1.49 0.9,-1.74 1.24,-1.74 1.03,0 1.12,1.35 1.12,1.74 l -2.36,0 -0.01,0.21 2.78,0 c 0.22,0 0.25,0 0.25,-0.21 0,-0.99 -0.54,-1.96 -1.78,-1.96 -1.16,0 -2.07,1.03 -2.07,2.28 0,1.33 1.04,2.3 2.19,2.3 1.21,0 1.66,-1.11 1.66,-1.3 0,-0.1 -0.08,-0.12 -0.13,-0.12 -0.09,0 -0.11,0.06 -0.13,0.14 -0.35,1.03 -1.24,1.03 -1.34,1.03 -0.5,0 -0.9,-0.3 -1.13,-0.67 -0.3,-0.48 -0.3,-1.14 -0.3,-1.49 z"
           style="font-style:normal;font-variant:normal;font-weight:normal;font-stretch:normal;letter-spacing:normal;word-spacing:normal;text-anchor:start;fill:#000000;stroke:#000000;stroke-width:0;stroke-linecap:butt;stroke-linejoin:miter;stroke-miterlimit:10.43299961;stroke-opacity:1;stroke-dasharray:none;stroke-dashoffset:0"
           id="path4435" />
        <path
           d="m 195.87402,677.3267 1.06,-1.03 c 1.55,-1.37 2.15,-1.91 2.15,-2.91 0,-1.13 -0.9,-1.93 -2.11,-1.93 -1.13,0 -1.87,0.92 -1.87,1.81 0,0.55 0.5,0.55 0.53,0.55 0.17,0 0.52,-0.12 0.52,-0.52 0,-0.26 -0.18,-0.52 -0.53,-0.52 -0.08,0 -0.1,0 -0.13,0.01 0.23,-0.65 0.77,-1.02 1.35,-1.02 0.9,0 1.33,0.81 1.33,1.62 0,0.8 -0.5,1.59 -1.04,2.21 l -1.92,2.13 c -0.11,0.11 -0.11,0.13 -0.11,0.37 l 3.7,0 0.28,-1.74 -0.25,0 c -0.05,0.3 -0.12,0.74 -0.22,0.89 -0.07,0.08 -0.73,0.08 -0.95,0.08 z"
           style="font-style:normal;font-variant:normal;font-weight:normal;font-stretch:normal;letter-spacing:normal;word-spacing:normal;text-anchor:start;fill:#000000;stroke:#000000;stroke-width:0;stroke-linecap:butt;stroke-linejoin:miter;stroke-miterlimit:10.43299961;stroke-opacity:1;stroke-dasharray:none;stroke-dashoffset:0"
           id="path4437" />
      </g>
      <g
         id="g6598"
         transform="translate(166.95756,19.429961)">
        <path
           id="path5830"
           style="font-style:normal;font-variant:normal;font-weight:normal;font-stretch:normal;letter-spacing:normal;word-spacing:normal;text-anchor:start;fill:#000000;stroke:#000000;stroke-width:0;stroke-linecap:butt;stroke-linejoin:miter;stroke-miterlimit:10.43299961;stroke-opacity:1;stroke-dasharray:none;stroke-dashoffset:0"
           d="m 103.73535,672.0549 0.04,-0.07 0.05,-0.07 0.04,-0.06 0.05,-0.06 0.04,-0.05 0.05,-0.05 0.04,-0.05 0.04,-0.05 0.04,-0.04 0.05,-0.03 0.04,-0.04 0.04,-0.03 0.04,-0.03 0.04,-0.02 0.04,-0.03 0.04,-0.02 0.04,-0.02 0.04,-0.01 0.04,-0.02 0.04,-0.01 0.04,-0.01 0.03,-0.01 0.04,-0.01 0.04,-0.01 0.03,-0.01 0.04,0 0.07,-0.01 0.07,0 0.07,-0.01 c 0.12,-0.01 0.13,-0.18 0.13,-0.19 0,-0.08 -0.05,-0.12 -0.13,-0.12 -0.25,0 -0.54,0.03 -0.81,0.03 -0.33,0 -0.67,-0.03 -0.99,-0.03 -0.06,0 -0.19,0 -0.19,0.19 0,0.11 0.09,0.12 0.16,0.12 0.27,0.02 0.46,0.12 0.46,0.33 0,0.15 -0.15,0.37 -0.15,0.38 l -3.06,4.86 -0.68,-5.27 c 0,-0.17 0.23,-0.3 0.69,-0.3 0.14,0 0.25,0 0.25,-0.2 0,-0.09 -0.08,-0.11 -0.14,-0.11 -0.4,0 -0.83,0.03 -1.23,0.03 -0.18,0 -0.37,-0.01 -0.55,-0.01 -0.18,0 -0.37,-0.02 -0.54,-0.02 -0.07,0 -0.19,0 -0.19,0.19 0,0.12 0.09,0.12 0.25,0.12 0.56,0 0.57,0.09 0.6,0.34 l 0.78,6.15 c 0.03,0.2 0.07,0.23 0.2,0.23 0.16,0 0.2,-0.05 0.28,-0.18 z" />
        <path
           id="path5832"
           style="font-style:normal;font-variant:normal;font-weight:normal;font-stretch:normal;letter-spacing:normal;word-spacing:normal;text-anchor:start;fill:#000000;stroke:#000000;stroke-width:0;stroke-linecap:butt;stroke-linejoin:miter;stroke-miterlimit:10.43299961;stroke-opacity:1;stroke-dasharray:none;stroke-dashoffset:0"
           d="m 105.55535,674.8549 -0.01,-0.01 0,-0.01 0,-0.01 0,-0.01 0,-0.01 0,-0.01 -0.01,-0.02 0,-0.01 -0.01,-0.01 0,-0.01 -0.01,-0.01 0,-0.01 -0.01,-0.01 -0.01,-0.01 0,-0.01 -0.01,-0.01 -0.01,-0.01 -0.01,-0.01 -0.01,-0.01 -0.01,-0.01 -0.01,-0.01 -0.01,0 -0.02,-0.01 -0.01,-0.01 -0.01,0 -0.02,-0.01 -0.01,0 -0.02,-0.01 -0.01,0 -0.02,0 -0.02,0 -0.01,0 c -0.19,0 -0.39,0.18 -0.39,0.38 0,0.12 0.09,0.27 0.27,0.27 0.21,0 0.4,-0.2 0.4,-0.39 z" />
        <path
           id="path5834"
           style="font-style:normal;font-variant:normal;font-weight:normal;font-stretch:normal;letter-spacing:normal;word-spacing:normal;text-anchor:start;fill:#000000;stroke:#000000;stroke-width:0;stroke-linecap:butt;stroke-linejoin:miter;stroke-miterlimit:10.43299961;stroke-opacity:1;stroke-dasharray:none;stroke-dashoffset:0"
           d="m 104.12535,678.3949 0,0.02 -0.01,0.02 -0.01,0.03 -0.01,0.02 0,0.02 -0.01,0.01 0,0.02 0,0.02 -0.01,0.02 0,0.01 -0.01,0.02 0,0.01 0,0.01 0,0.01 0,0.01 0,0.01 0,0.02 0,0.01 0,0.01 c 0,0.32 0.28,0.59 0.66,0.59 0.7,0 1.01,-0.96 1.01,-1.07 0,-0.09 -0.09,-0.09 -0.12,-0.09 -0.09,0 -0.1,0.04 -0.13,0.12 -0.16,0.56 -0.46,0.84 -0.74,0.84 -0.14,0 -0.17,-0.09 -0.17,-0.24 0,-0.16 0.05,-0.29 0.11,-0.45 0.07,-0.18 0.15,-0.37 0.22,-0.55 0.07,-0.17 0.32,-0.81 0.35,-0.89 0.02,-0.07 0.04,-0.15 0.04,-0.22 0,-0.33 -0.28,-0.6 -0.67,-0.6 -0.69,0 -1.01,0.95 -1.01,1.07 0,0.09 0.1,0.09 0.12,0.09 0.1,0 0.11,-0.03 0.13,-0.11 0.18,-0.6 0.48,-0.85 0.74,-0.85 0.12,0 0.18,0.06 0.18,0.24 0,0.16 -0.04,0.27 -0.22,0.7 z" />
        <path
           id="path5836"
           style="font-style:normal;font-variant:normal;font-weight:normal;font-stretch:normal;letter-spacing:normal;word-spacing:normal;text-anchor:start;fill:#000000;stroke:#000000;stroke-width:0;stroke-linecap:butt;stroke-linejoin:miter;stroke-miterlimit:10.43299961;stroke-opacity:1;stroke-dasharray:none;stroke-dashoffset:0"
           d="m 106.96535,678.7749 -0.01,0.01 0,0.01 0,0.01 -0.01,0.01 0,0.01 0,0.01 0,0.01 -0.01,0.01 0,0.02 -0.01,0.03 0,0.02 -0.01,0.02 0,0.01 0,0.01 -0.01,0.01 0,0.01 0,0.01 0,0.01 -0.01,0.01 0,0.01 0,0 0,0.01 0,0.01 0,0 0,0.01 0,0 0,0 0,0 0,0.01 0,0 c 0,0.15 0.12,0.22 0.23,0.22 0.13,0 0.24,-0.09 0.27,-0.15 0.04,-0.07 0.1,-0.29 0.13,-0.44 0.04,-0.13 0.11,-0.45 0.15,-0.62 0.05,-0.16 0.09,-0.31 0.12,-0.47 0.08,-0.29 0.09,-0.34 0.3,-0.63 0.19,-0.28 0.52,-0.64 1.04,-0.64 0.41,0 0.41,0.35 0.41,0.49 0,0.42 -0.3,1.19 -0.41,1.48 -0.08,0.2 -0.1,0.26 -0.1,0.38 0,0.37 0.3,0.6 0.66,0.6 0.7,0 1,-0.96 1,-1.07 0,-0.09 -0.09,-0.09 -0.11,-0.09 -0.09,0 -0.1,0.04 -0.13,0.12 -0.16,0.56 -0.46,0.84 -0.74,0.84 -0.15,0 -0.17,-0.09 -0.17,-0.24 0,-0.16 0.03,-0.25 0.16,-0.57 0.08,-0.21 0.37,-0.95 0.37,-1.34 0,-0.68 -0.54,-0.8 -0.91,-0.8 -0.58,0 -0.97,0.36 -1.18,0.64 -0.05,-0.48 -0.46,-0.64 -0.74,-0.64 -0.3,0 -0.47,0.22 -0.56,0.38 -0.15,0.26 -0.25,0.66 -0.25,0.69 0,0.09 0.1,0.09 0.12,0.09 0.1,0 0.11,-0.02 0.15,-0.21 0.11,-0.41 0.24,-0.75 0.51,-0.75 0.18,0 0.23,0.15 0.23,0.34 0,0.13 -0.06,0.39 -0.11,0.58 -0.05,0.19 -0.12,0.48 -0.15,0.63 z" />
      </g>
      <g
         id="g6579"
         transform="translate(298.26945,31.876496)">
        <path
           id="path5856"
           style="font-style:normal;font-variant:normal;font-weight:normal;font-stretch:normal;letter-spacing:normal;word-spacing:normal;text-anchor:start;fill:#000000;stroke:#000000;stroke-width:0;stroke-linecap:butt;stroke-linejoin:miter;stroke-miterlimit:10.43299961;stroke-opacity:1;stroke-dasharray:none;stroke-dashoffset:0"
           d="m 166.62535,672.0549 0.04,-0.07 0.05,-0.07 0.04,-0.06 0.05,-0.06 0.04,-0.05 0.04,-0.05 0.05,-0.05 0.04,-0.05 0.04,-0.04 0.04,-0.03 0.05,-0.04 0.04,-0.03 0.04,-0.03 0.04,-0.02 0.04,-0.03 0.04,-0.02 0.04,-0.02 0.04,-0.01 0.04,-0.02 0.04,-0.01 0.03,-0.01 0.04,-0.01 0.04,-0.01 0.04,-0.01 0.03,-0.01 0.04,0 0.07,-0.01 0.07,0 0.07,-0.01 c 0.12,-0.01 0.13,-0.18 0.13,-0.19 0,-0.08 -0.05,-0.12 -0.13,-0.12 -0.26,0 -0.55,0.03 -0.81,0.03 -0.33,0 -0.67,-0.03 -0.99,-0.03 -0.06,0 -0.19,0 -0.19,0.19 0,0.11 0.09,0.12 0.16,0.12 0.27,0.02 0.46,0.12 0.46,0.33 0,0.15 -0.15,0.37 -0.15,0.38 l -3.06,4.86 -0.68,-5.27 c 0,-0.17 0.23,-0.3 0.69,-0.3 0.14,0 0.25,0 0.25,-0.2 0,-0.09 -0.08,-0.11 -0.14,-0.11 -0.4,0 -0.83,0.03 -1.24,0.03 -0.18,0 -0.36,-0.01 -0.54,-0.01 -0.18,0 -0.37,-0.02 -0.54,-0.02 -0.07,0 -0.19,0 -0.19,0.19 0,0.12 0.09,0.12 0.25,0.12 0.55,0 0.57,0.09 0.6,0.34 l 0.78,6.15 c 0.03,0.2 0.07,0.23 0.2,0.23 0.16,0 0.2,-0.05 0.28,-0.18 z" />
        <path
           id="path5858"
           style="font-style:normal;font-variant:normal;font-weight:normal;font-stretch:normal;letter-spacing:normal;word-spacing:normal;text-anchor:start;fill:#000000;stroke:#000000;stroke-width:0;stroke-linecap:butt;stroke-linejoin:miter;stroke-miterlimit:10.43299961;stroke-opacity:1;stroke-dasharray:none;stroke-dashoffset:0"
           d="m 169.88535,677.3649 -0.01,-0.08 0,-0.07 -0.01,-0.06 -0.01,-0.07 -0.01,-0.06 -0.02,-0.06 -0.02,-0.06 -0.03,-0.06 -0.02,-0.06 -0.03,-0.05 -0.03,-0.05 -0.03,-0.05 -0.04,-0.05 -0.04,-0.04 -0.04,-0.05 -0.04,-0.04 -0.04,-0.03 -0.05,-0.04 -0.05,-0.03 -0.05,-0.03 -0.05,-0.03 -0.05,-0.03 -0.06,-0.02 -0.05,-0.02 -0.06,-0.02 -0.06,-0.02 -0.06,-0.01 -0.06,-0.01 -0.06,-0.01 -0.06,-0.01 -0.06,0 -0.07,-0.01 0,0.2 c 0.37,0 0.69,0.26 0.69,0.77 0,0.17 -0.08,0.86 -0.39,1.35 -0.26,0.41 -0.68,0.63 -1.03,0.63 l 0,0 c -0.35,0 -0.7,-0.22 -0.7,-0.77 0,-0.29 0.14,-0.97 0.41,-1.37 0.3,-0.43 0.7,-0.61 1.02,-0.61 l 0,-0.2 c -1.03,0 -2,0.97 -2,1.93 0,0.7 0.5,1.22 1.26,1.22 1,0 2.01,-0.92 2.01,-1.92 z" />
        <path
           id="path5860"
           style="font-style:normal;font-variant:normal;font-weight:normal;font-stretch:normal;letter-spacing:normal;word-spacing:normal;text-anchor:start;fill:#000000;stroke:#000000;stroke-width:0;stroke-linecap:butt;stroke-linejoin:miter;stroke-miterlimit:10.43299961;stroke-opacity:1;stroke-dasharray:none;stroke-dashoffset:0"
           d="m 173.05535,678.0849 0,0.01 0,0.02 -0.01,0.01 0,0.02 -0.01,0.01 0,0.02 0,0.02 -0.01,0.01 -0.01,0.04 0,0.03 -0.01,0.03 -0.01,0.02 0,0.02 -0.01,0.01 0,0.02 0,0.01 -0.01,0.02 0,0.01 0,0.01 -0.01,0.01 0,0.01 0,0.01 -0.01,0.01 0,0.01 0,0.01 0,0 0,0 0,0.01 -0.01,0 0,0 0,0 0,0 0,0 c -0.13,0.22 -0.41,0.59 -0.84,0.59 -0.48,0 -0.48,-0.45 -0.48,-0.57 0,-0.42 0.19,-0.91 0.39,-1.42 0.05,-0.14 0.09,-0.24 0.09,-0.36 0,-0.36 -0.3,-0.6 -0.66,-0.6 -0.7,0 -1.01,0.96 -1.01,1.07 0,0.09 0.1,0.09 0.12,0.09 0.1,0 0.1,-0.03 0.12,-0.11 0.17,-0.57 0.48,-0.85 0.75,-0.85 0.12,0 0.17,0.08 0.17,0.24 0,0.16 -0.05,0.31 -0.12,0.47 -0.38,0.96 -0.38,1.17 -0.38,1.35 0,0.12 0,0.44 0.26,0.67 0.2,0.16 0.48,0.22 0.72,0.22 0.44,0 0.68,-0.24 0.91,-0.46 0.15,0.45 0.62,0.46 0.7,0.46 0.24,0 0.42,-0.14 0.55,-0.37 0.15,-0.27 0.25,-0.68 0.25,-0.7 0,-0.09 -0.1,-0.09 -0.12,-0.09 -0.09,0 -0.1,0.03 -0.15,0.22 -0.08,0.33 -0.22,0.74 -0.51,0.74 -0.18,0 -0.23,-0.16 -0.23,-0.34 0,-0.12 0.06,-0.37 0.11,-0.55 0.04,-0.19 0.11,-0.47 0.15,-0.63 l 0.16,-0.62 c 0.04,-0.17 0.12,-0.48 0.12,-0.51 0,-0.14 -0.11,-0.23 -0.23,-0.23 -0.26,0 -0.31,0.21 -0.36,0.43 z" />
        <path
           id="path5862"
           style="font-style:normal;font-variant:normal;font-weight:normal;font-stretch:normal;letter-spacing:normal;word-spacing:normal;text-anchor:start;fill:#000000;stroke:#000000;stroke-width:0;stroke-linecap:butt;stroke-linejoin:miter;stroke-miterlimit:10.43299961;stroke-opacity:1;stroke-dasharray:none;stroke-dashoffset:0"
           d="m 176.53535,676.4549 0.71,0 c 0.13,0 0.22,0 0.22,-0.15 0,-0.1 -0.09,-0.1 -0.21,-0.1 l -0.66,0 0.26,-1.03 c 0.01,-0.03 0.02,-0.07 0.02,-0.1 0,-0.12 -0.1,-0.22 -0.24,-0.22 -0.17,0 -0.28,0.12 -0.32,0.3 -0.05,0.18 0.04,-0.16 -0.27,1.05 l -0.71,0 c -0.13,0 -0.22,0 -0.22,0.16 0,0.09 0.08,0.09 0.2,0.09 l 0.67,0 -0.41,1.65 c -0.05,0.17 -0.11,0.43 -0.11,0.52 0,0.41 0.35,0.66 0.75,0.66 0.77,0 1.21,-0.98 1.21,-1.07 0,-0.09 -0.09,-0.09 -0.11,-0.09 -0.09,0 -0.09,0.02 -0.15,0.13 -0.19,0.44 -0.55,0.83 -0.93,0.83 -0.15,0 -0.25,-0.09 -0.25,-0.34 0,-0.07 0.03,-0.21 0.05,-0.28 z" />
      </g>
      <path
         style="fill:none;stroke:#000000;stroke-width:1px;stroke-linecap:butt;stroke-linejoin:miter;stroke-opacity:1"
         d="m 435.01,708.6714 17.71653,0"
         id="path6604"
         inkscape:path-effect="#path-effect6606"
         inkscape:original-d="m 435.01,708.6714 17.71653,0" />
    </g>
    <rect
       transform="translate(0,527.95272)"
       y="1.7716285"
       x="-44.29134"
       height="460.62991"
       width="850.39368"
       id="rect3537"
       style="fill:none;stroke:#000000;stroke-width:1;stroke-miterlimit:4;stroke-opacity:0;stroke-dasharray:none;stroke-dashoffset:0" />
    <path
       transform="translate(0,527.95272)"
       inkscape:original-d="m 283.46457,90.354306 c 0,0 89.42055,9.249112 0,0 z"
       inkscape:path-effect="#path-effect4643"
       id="path4641"
       d="m 283.46457,90.354306 0,0"
       style="fill:none;stroke:#000000;stroke-width:1px;stroke-linecap:butt;stroke-linejoin:miter;stroke-opacity:1" />
  </g>
</svg>
